{
  "heading.default" : {
    "message" : "Articles connexes",
    "description" : "",
    "placeholders" : null
  },
  "heading.label" : {
    "message" : "Titre",
    "description" : "",
    "placeholders" : null
  },
  "name" : {
    "message" : "Liste des publications connexes",
    "description" : "",
    "placeholders" : null
  },
  "read_more_text.default" : {
    "message" : "En lire plus",
    "description" : "",
    "placeholders" : null
  },
  "read_more_text.label" : {
    "message" : "Lire plus de texte",
    "description" : "",
    "placeholders" : null
  }
}