{
  "heading.default" : {
    "message" : "Articole asociate",
    "description" : "",
    "placeholders" : null
  },
  "heading.label" : {
    "message" : "Antet",
    "description" : "",
    "placeholders" : null
  },
  "name" : {
    "message" : "Listare postare asociată",
    "description" : "",
    "placeholders" : null
  },
  "read_more_text.default" : {
    "message" : "Citiți mai multe",
    "description" : "",
    "placeholders" : null
  },
  "read_more_text.label" : {
    "message" : "Text citiți mai multe",
    "description" : "",
    "placeholders" : null
  }
}