{
  "name": {
    "message": "網站搜尋結果",
    "description": "",
    "placeholders": null
  },
  "display_featured_images.label": {
    "message": "顯示精選圖片",
    "description": "",
    "placeholders": null
  }
}
