[ {
  "id" : "heading",
  "name" : "heading",
  "display_width" : null,
  "label" : "Heading",
  "required" : true,
  "locked" : false,
  "validation_regex" : "",
  "allow_new_line" : false,
  "show_emoji_picker" : false,
  "type" : "text",
  "default" : "Related Articles"
}, {
  "id" : "read_more_text",
  "name" : "read_more_text",
  "display_width" : null,
  "label" : "Read more text",
  "required" : true,
  "locked" : false,
  "validation_regex" : "",
  "allow_new_line" : false,
  "show_emoji_picker" : false,
  "type" : "text",
  "default" : "Read More"
} ]