{
  "name": {
    "message": "Session",
    "description": "",
    "placeholders": null
  },
  "colors.body_bg.label": {
    "message": "Color de fons del cos",
    "description": "",
    "placeholders": null
  },
  "colors.label": {
    "message": "Colors",
    "description": "",
    "placeholders": null
  },
  "colors.primary.label": {
    "message": "Principal",
    "description": "",
    "placeholders": null
  },
  "colors.secondary.label": {
    "message": "Secundari",
    "description": "",
    "placeholders": null
  },
  "fonts.label": {
    "message": "Fonts",
    "description": "",
    "placeholders": null
  },
  "fonts.primary.label": {
    "message": "Principal",
    "description": "",
    "placeholders": null
  },
  "fonts.secondary.label": {
    "message": "Secundari",
    "description": "",
    "placeholders": null
  },
  "global.blog.blog_banner_images.blog_banner_bg.choices.color": {
    "message": "Color sòlid",
    "description": "",
    "placeholders": null
  },
  "global.blog.blog_banner_images.blog_banner_bg.choices.image": {
    "message": "Utilitza una imatge",
    "description": "",
    "placeholders": null
  },
  "global.blog.blog_banner_images.blog_banner_bg.label": {
    "message": "Fons",
    "description": "",
    "placeholders": null
  },
  "global.blog.blog_banner_images.blog_banner_bg_color.help_text": {
    "message": "El color de fons del bàner es farà servir com a fons sòlid a menys que es defineixi una imatge de fons. En aquest cas, el color s'utilitzarà com a color de reserva per a la imatge del bàner.",
    "description": "",
    "placeholders": null
  },
  "global.blog.blog_banner_images.blog_banner_bg_color.label": {
    "message": "Color de fons",
    "description": "",
    "placeholders": null
  },
  "global.blog.blog_banner_images.label": {
    "message": "Bàner",
    "description": "",
    "placeholders": null
  },
  "global.blog.blog_banner_images.listing_bg.help_text": {
    "message": "Imatge de fons utilitzada a la pàgina de llista de blogs per a tots els blogs que fan servir la plantilla \"Sessió: llistes de blogs\"",
    "description": "",
    "placeholders": null
  },
  "global.blog.blog_banner_images.listing_bg.label": {
    "message": "Imatge del bàner de llistes de blogs",
    "description": "",
    "placeholders": null
  },
  "global.blog.label": {
    "message": "Blog",
    "description": "",
    "placeholders": null
  },
  "global.blog.tags.bg_color.label": {
    "message": "Color de fons",
    "description": "",
    "placeholders": null
  },
  "global.blog.tags.color.label": {
    "message": "Color",
    "description": "",
    "placeholders": null
  },
  "global.blog.tags.label": {
    "message": "Etiquetes",
    "description": "",
    "placeholders": null
  },
  "global.buttons.label": {
    "message": "Botons",
    "description": "",
    "placeholders": null
  },
  "global.buttons.primary.bg_color.label": {
    "message": "Color de fons",
    "description": "",
    "placeholders": null
  },
  "global.buttons.primary.border.color.label": {
    "message": "Color",
    "description": "",
    "placeholders": null
  },
  "global.buttons.primary.border.corner_radius.help_text": {
    "message": "El valor està expressat en píxels",
    "description": "",
    "placeholders": null
  },
  "global.buttons.primary.border.corner_radius.label": {
    "message": "Radi de cantonada",
    "description": "",
    "placeholders": null
  },
  "global.buttons.primary.border.label": {
    "message": "Cantonada",
    "description": "",
    "placeholders": null
  },
  "global.buttons.primary.border.style.choices.dashed": {
    "message": "Discontínua",
    "description": "",
    "placeholders": null
  },
  "global.buttons.primary.border.style.choices.dotted": {
    "message": "De punts",
    "description": "",
    "placeholders": null
  },
  "global.buttons.primary.border.style.choices.double": {
    "message": "Doble",
    "description": "",
    "placeholders": null
  },
  "global.buttons.primary.border.style.choices.groove": {
    "message": "Ranura",
    "description": "",
    "placeholders": null
  },
  "global.buttons.primary.border.style.choices.inset": {
    "message": "Interior",
    "description": "",
    "placeholders": null
  },
  "global.buttons.primary.border.style.choices.none": {
    "message": "Cap",
    "description": "",
    "placeholders": null
  },
  "global.buttons.primary.border.style.choices.outset": {
    "message": "Exterior",
    "description": "",
    "placeholders": null
  },
  "global.buttons.primary.border.style.choices.ridge": {
    "message": "Cresta",
    "description": "",
    "placeholders": null
  },
  "global.buttons.primary.border.style.choices.solid": {
    "message": "Sòlid",
    "description": "",
    "placeholders": null
  },
  "global.buttons.primary.border.style.label": {
    "message": "Estil",
    "description": "",
    "placeholders": null
  },
  "global.buttons.primary.border.width.help_text": {
    "message": "El valor està expressat en píxels",
    "description": "",
    "placeholders": null
  },
  "global.buttons.primary.border.width.label": {
    "message": "Amplada",
    "description": "",
    "placeholders": null
  },
  "global.buttons.primary.font.label": {
    "message": "Tipus de lletra",
    "description": "",
    "placeholders": null
  },
  "global.buttons.primary.hover.bg_color.label": {
    "message": "Color de fons",
    "description": "",
    "placeholders": null
  },
  "global.buttons.primary.hover.border.color.label": {
    "message": "Color",
    "description": "",
    "placeholders": null
  },
  "global.buttons.primary.hover.border.label": {
    "message": "Cantonada",
    "description": "",
    "placeholders": null
  },
  "global.buttons.primary.hover.border.style.choices.dashed": {
    "message": "Discontínua",
    "description": "",
    "placeholders": null
  },
  "global.buttons.primary.hover.border.style.choices.dotted": {
    "message": "De punts",
    "description": "",
    "placeholders": null
  },
  "global.buttons.primary.hover.border.style.choices.double": {
    "message": "Doble",
    "description": "",
    "placeholders": null
  },
  "global.buttons.primary.hover.border.style.choices.groove": {
    "message": "Ranura",
    "description": "",
    "placeholders": null
  },
  "global.buttons.primary.hover.border.style.choices.inset": {
    "message": "Interior",
    "description": "",
    "placeholders": null
  },
  "global.buttons.primary.hover.border.style.choices.none": {
    "message": "Cap",
    "description": "",
    "placeholders": null
  },
  "global.buttons.primary.hover.border.style.choices.outset": {
    "message": "Exterior",
    "description": "",
    "placeholders": null
  },
  "global.buttons.primary.hover.border.style.choices.ridge": {
    "message": "Cresta",
    "description": "",
    "placeholders": null
  },
  "global.buttons.primary.hover.border.style.choices.solid": {
    "message": "Sòlid",
    "description": "",
    "placeholders": null
  },
  "global.buttons.primary.hover.border.style.label": {
    "message": "Estil",
    "description": "",
    "placeholders": null
  },
  "global.buttons.primary.hover.border.width.help_text": {
    "message": "El valor està expressat en píxels",
    "description": "",
    "placeholders": null
  },
  "global.buttons.primary.hover.border.width.label": {
    "message": "Amplada",
    "description": "",
    "placeholders": null
  },
  "global.buttons.primary.hover.font.label": {
    "message": "Tipus de lletra",
    "description": "",
    "placeholders": null
  },
  "global.buttons.primary.hover.label": {
    "message": "Apuntar",
    "description": "",
    "placeholders": null
  },
  "global.buttons.primary.label": {
    "message": "Principal",
    "description": "",
    "placeholders": null
  },
  "global.buttons.primary.text_transform.choices.capitalize": {
    "message": "Posa en majúscula",
    "description": "",
    "placeholders": null
  },
  "global.buttons.primary.text_transform.choices.lowercase": {
    "message": "Minúscula",
    "description": "",
    "placeholders": null
  },
  "global.buttons.primary.text_transform.choices.none": {
    "message": "Cap",
    "description": "",
    "placeholders": null
  },
  "global.buttons.primary.text_transform.choices.uppercase": {
    "message": "Majúscula",
    "description": "",
    "placeholders": null
  },
  "global.buttons.primary.text_transform.label": {
    "message": "Transformació del text",
    "description": "",
    "placeholders": null
  },
  "global.buttons.secondary.bg_color.label": {
    "message": "Color de fons",
    "description": "",
    "placeholders": null
  },
  "global.buttons.secondary.border.color.label": {
    "message": "Color",
    "description": "",
    "placeholders": null
  },
  "global.buttons.secondary.border.corner_radius.help_text": {
    "message": "El valor està expressat en píxels",
    "description": "",
    "placeholders": null
  },
  "global.buttons.secondary.border.corner_radius.label": {
    "message": "Radi de cantonada",
    "description": "",
    "placeholders": null
  },
  "global.buttons.secondary.border.label": {
    "message": "Cantonada",
    "description": "",
    "placeholders": null
  },
  "global.buttons.secondary.border.style.choices.dashed": {
    "message": "Discontínua",
    "description": "",
    "placeholders": null
  },
  "global.buttons.secondary.border.style.choices.dotted": {
    "message": "De punts",
    "description": "",
    "placeholders": null
  },
  "global.buttons.secondary.border.style.choices.double": {
    "message": "Doble",
    "description": "",
    "placeholders": null
  },
  "global.buttons.secondary.border.style.choices.groove": {
    "message": "Ranura",
    "description": "",
    "placeholders": null
  },
  "global.buttons.secondary.border.style.choices.inset": {
    "message": "Interior",
    "description": "",
    "placeholders": null
  },
  "global.buttons.secondary.border.style.choices.none": {
    "message": "Cap",
    "description": "",
    "placeholders": null
  },
  "global.buttons.secondary.border.style.choices.outset": {
    "message": "Exterior",
    "description": "",
    "placeholders": null
  },
  "global.buttons.secondary.border.style.choices.ridge": {
    "message": "Cresta",
    "description": "",
    "placeholders": null
  },
  "global.buttons.secondary.border.style.choices.solid": {
    "message": "Sòlid",
    "description": "",
    "placeholders": null
  },
  "global.buttons.secondary.border.style.label": {
    "message": "Estil",
    "description": "",
    "placeholders": null
  },
  "global.buttons.secondary.border.width.help_text": {
    "message": "El valor està expressat en píxels",
    "description": "",
    "placeholders": null
  },
  "global.buttons.secondary.border.width.label": {
    "message": "Amplada",
    "description": "",
    "placeholders": null
  },
  "global.buttons.secondary.font.label": {
    "message": "Tipus de lletra",
    "description": "",
    "placeholders": null
  },
  "global.buttons.secondary.hover.bg_color.label": {
    "message": "Color de fons",
    "description": "",
    "placeholders": null
  },
  "global.buttons.secondary.hover.border.color.label": {
    "message": "Color",
    "description": "",
    "placeholders": null
  },
  "global.buttons.secondary.hover.border.label": {
    "message": "Cantonada",
    "description": "",
    "placeholders": null
  },
  "global.buttons.secondary.hover.border.style.choices.dashed": {
    "message": "Discontínua",
    "description": "",
    "placeholders": null
  },
  "global.buttons.secondary.hover.border.style.choices.dotted": {
    "message": "De punts",
    "description": "",
    "placeholders": null
  },
  "global.buttons.secondary.hover.border.style.choices.double": {
    "message": "Doble",
    "description": "",
    "placeholders": null
  },
  "global.buttons.secondary.hover.border.style.choices.groove": {
    "message": "Ranura",
    "description": "",
    "placeholders": null
  },
  "global.buttons.secondary.hover.border.style.choices.inset": {
    "message": "Interior",
    "description": "",
    "placeholders": null
  },
  "global.buttons.secondary.hover.border.style.choices.none": {
    "message": "Cap",
    "description": "",
    "placeholders": null
  },
  "global.buttons.secondary.hover.border.style.choices.outset": {
    "message": "Exterior",
    "description": "",
    "placeholders": null
  },
  "global.buttons.secondary.hover.border.style.choices.ridge": {
    "message": "Cresta",
    "description": "",
    "placeholders": null
  },
  "global.buttons.secondary.hover.border.style.choices.solid": {
    "message": "Sòlid",
    "description": "",
    "placeholders": null
  },
  "global.buttons.secondary.hover.border.style.label": {
    "message": "Estil",
    "description": "",
    "placeholders": null
  },
  "global.buttons.secondary.hover.border.width.help_text": {
    "message": "El valor està expressat en píxels",
    "description": "",
    "placeholders": null
  },
  "global.buttons.secondary.hover.border.width.label": {
    "message": "Amplada",
    "description": "",
    "placeholders": null
  },
  "global.buttons.secondary.hover.font.label": {
    "message": "Tipus de lletra",
    "description": "",
    "placeholders": null
  },
  "global.buttons.secondary.hover.label": {
    "message": "Apuntar",
    "description": "",
    "placeholders": null
  },
  "global.buttons.secondary.label": {
    "message": "Secundari",
    "description": "",
    "placeholders": null
  },
  "global.buttons.secondary.text_transform.choices.capitalize": {
    "message": "Posa en majúscula",
    "description": "",
    "placeholders": null
  },
  "global.buttons.secondary.text_transform.choices.lowercase": {
    "message": "Minúscula",
    "description": "",
    "placeholders": null
  },
  "global.buttons.secondary.text_transform.choices.none": {
    "message": "Cap",
    "description": "",
    "placeholders": null
  },
  "global.buttons.secondary.text_transform.choices.uppercase": {
    "message": "Majúscula",
    "description": "",
    "placeholders": null
  },
  "global.buttons.secondary.text_transform.label": {
    "message": "Transformació del text",
    "description": "",
    "placeholders": null
  },
  "global.buttons.simple.font.label": {
    "message": "Tipus de lletra",
    "description": "",
    "placeholders": null
  },
  "global.buttons.simple.hover.font.label": {
    "message": "Tipus de lletra",
    "description": "",
    "placeholders": null
  },
  "global.buttons.simple.hover.label": {
    "message": "Apuntar",
    "description": "",
    "placeholders": null
  },
  "global.buttons.simple.hover.underline.add_underline.label": {
    "message": "Afegeix subratllat",
    "description": "",
    "placeholders": null
  },
  "global.buttons.simple.hover.underline.color.label": {
    "message": "Color",
    "description": "",
    "placeholders": null
  },
  "global.buttons.simple.hover.underline.label": {
    "message": "Subratllat",
    "description": "",
    "placeholders": null
  },
  "global.buttons.simple.hover.underline.width.help_text": {
    "message": "El valor està expressat en píxels",
    "description": "",
    "placeholders": null
  },
  "global.buttons.simple.hover.underline.width.label": {
    "message": "Amplada",
    "description": "",
    "placeholders": null
  },
  "global.buttons.simple.label": {
    "message": "Senzill",
    "description": "",
    "placeholders": null
  },
  "global.buttons.simple.text_transform.choices.capitalize": {
    "message": "Posa en majúscula",
    "description": "",
    "placeholders": null
  },
  "global.buttons.simple.text_transform.choices.lowercase": {
    "message": "Minúscula",
    "description": "",
    "placeholders": null
  },
  "global.buttons.simple.text_transform.choices.none": {
    "message": "Cap",
    "description": "",
    "placeholders": null
  },
  "global.buttons.simple.text_transform.choices.uppercase": {
    "message": "Majúscula",
    "description": "",
    "placeholders": null
  },
  "global.buttons.simple.text_transform.label": {
    "message": "Transformació del text",
    "description": "",
    "placeholders": null
  },
  "global.buttons.simple.underline.add_underline.label": {
    "message": "Afegeix subratllat",
    "description": "",
    "placeholders": null
  },
  "global.buttons.simple.underline.color.label": {
    "message": "Color",
    "description": "",
    "placeholders": null
  },
  "global.buttons.simple.underline.label": {
    "message": "Subratllat",
    "description": "",
    "placeholders": null
  },
  "global.buttons.simple.underline.width.help_text": {
    "message": "El valor està expressat en píxels",
    "description": "",
    "placeholders": null
  },
  "global.buttons.simple.underline.width.label": {
    "message": "Amplada",
    "description": "",
    "placeholders": null
  },
  "global.buttons.size.label": {
    "message": "Mida",
    "description": "",
    "placeholders": null
  },
  "global.buttons.size.large.font_size.help_text": {
    "message": "El valor està expressat en píxels",
    "description": "",
    "placeholders": null
  },
  "global.buttons.size.large.font_size.label": {
    "message": "Mida del tipus de lletra",
    "description": "",
    "placeholders": null
  },
  "global.buttons.size.large.horizontal_spacing.help_text": {
    "message": "El valor està expressat en píxels",
    "description": "",
    "placeholders": null
  },
  "global.buttons.size.large.horizontal_spacing.label": {
    "message": "Espaiat horitzontal",
    "description": "",
    "placeholders": null
  },
  "global.buttons.size.large.label": {
    "message": "Gran",
    "description": "",
    "placeholders": null
  },
  "global.buttons.size.large.vertical_spacing.help_text": {
    "message": "El valor està expressat en píxels",
    "description": "",
    "placeholders": null
  },
  "global.buttons.size.large.vertical_spacing.label": {
    "message": "Espaiat vertical",
    "description": "",
    "placeholders": null
  },
  "global.buttons.size.regular.font_size.help_text": {
    "message": "El valor està expressat en píxels",
    "description": "",
    "placeholders": null
  },
  "global.buttons.size.regular.font_size.label": {
    "message": "Mida del tipus de lletra",
    "description": "",
    "placeholders": null
  },
  "global.buttons.size.regular.horizontal_spacing.help_text": {
    "message": "El valor està expressat en píxels",
    "description": "",
    "placeholders": null
  },
  "global.buttons.size.regular.horizontal_spacing.label": {
    "message": "Espaiat horitzontal",
    "description": "",
    "placeholders": null
  },
  "global.buttons.size.regular.label": {
    "message": "Normal",
    "description": "",
    "placeholders": null
  },
  "global.buttons.size.regular.vertical_spacing.help_text": {
    "message": "El valor està expressat en píxels",
    "description": "",
    "placeholders": null
  },
  "global.buttons.size.regular.vertical_spacing.label": {
    "message": "Espaiat vertical",
    "description": "",
    "placeholders": null
  },
  "global.buttons.size.small.font_size.help_text": {
    "message": "El valor està expressat en píxels",
    "description": "",
    "placeholders": null
  },
  "global.buttons.size.small.font_size.label": {
    "message": "Mida del tipus de lletra",
    "description": "",
    "placeholders": null
  },
  "global.buttons.size.small.horizontal_spacing.help_text": {
    "message": "El valor està expressat en píxels",
    "description": "",
    "placeholders": null
  },
  "global.buttons.size.small.horizontal_spacing.label": {
    "message": "Espaiat horitzontal",
    "description": "",
    "placeholders": null
  },
  "global.buttons.size.small.label": {
    "message": "Petit",
    "description": "",
    "placeholders": null
  },
  "global.buttons.size.small.vertical_spacing.help_text": {
    "message": "El valor està expressat en píxels",
    "description": "",
    "placeholders": null
  },
  "global.buttons.size.small.vertical_spacing.label": {
    "message": "Espaiat vertical",
    "description": "",
    "placeholders": null
  },
  "global.footer.bg_color.label": {
    "message": "Color de fons",
    "description": "",
    "placeholders": null
  },
  "global.footer.border.color.label": {
    "message": "Color",
    "description": "",
    "placeholders": null
  },
  "global.footer.border.label": {
    "message": "Vora superior",
    "description": "",
    "placeholders": null
  },
  "global.footer.border.style.choices.dashed": {
    "message": "Discontínua",
    "description": "",
    "placeholders": null
  },
  "global.footer.border.style.choices.dotted": {
    "message": "De punts",
    "description": "",
    "placeholders": null
  },
  "global.footer.border.style.choices.double": {
    "message": "Doble",
    "description": "",
    "placeholders": null
  },
  "global.footer.border.style.choices.groove": {
    "message": "Ranura",
    "description": "",
    "placeholders": null
  },
  "global.footer.border.style.choices.inset": {
    "message": "Interior",
    "description": "",
    "placeholders": null
  },
  "global.footer.border.style.choices.none": {
    "message": "Cap",
    "description": "",
    "placeholders": null
  },
  "global.footer.border.style.choices.outset": {
    "message": "Exterior",
    "description": "",
    "placeholders": null
  },
  "global.footer.border.style.choices.ridge": {
    "message": "Cresta",
    "description": "",
    "placeholders": null
  },
  "global.footer.border.style.choices.solid": {
    "message": "Sòlid",
    "description": "",
    "placeholders": null
  },
  "global.footer.border.style.label": {
    "message": "Estil",
    "description": "",
    "placeholders": null
  },
  "global.footer.border.width.help_text": {
    "message": "El valor està expressat en píxels",
    "description": "",
    "placeholders": null
  },
  "global.footer.border.width.label": {
    "message": "Amplada",
    "description": "",
    "placeholders": null
  },
  "global.footer.font_color.label": {
    "message": "Color del tipus de lletra",
    "description": "",
    "placeholders": null
  },
  "global.footer.label": {
    "message": "Peu de pàgina",
    "description": "",
    "placeholders": null
  },
  "global.footer.menu.active.font.label": {
    "message": "Tipus de lletra",
    "description": "",
    "placeholders": null
  },
  "global.footer.menu.active.label": {
    "message": "Actiu",
    "description": "",
    "placeholders": null
  },
  "global.footer.menu.font.label": {
    "message": "Tipus de lletra",
    "description": "",
    "placeholders": null
  },
  "global.footer.menu.hover.font.label": {
    "message": "Tipus de lletra",
    "description": "",
    "placeholders": null
  },
  "global.footer.menu.hover.label": {
    "message": "Apuntar",
    "description": "",
    "placeholders": null
  },
  "global.footer.menu.label": {
    "message": "Menú",
    "description": "",
    "placeholders": null
  },
  "global.footer.menu.text_transform.choices.capitalize": {
    "message": "Posa en majúscula",
    "description": "",
    "placeholders": null
  },
  "global.footer.menu.text_transform.choices.lowercase": {
    "message": "Minúscula",
    "description": "",
    "placeholders": null
  },
  "global.footer.menu.text_transform.choices.none": {
    "message": "Cap",
    "description": "",
    "placeholders": null
  },
  "global.footer.menu.text_transform.choices.uppercase": {
    "message": "Majúscula",
    "description": "",
    "placeholders": null
  },
  "global.footer.menu.text_transform.label": {
    "message": "Transformació del text",
    "description": "",
    "placeholders": null
  },
  "global.forms.bg_color.label": {
    "message": "Color de fons",
    "description": "",
    "placeholders": null
  },
  "global.forms.border.color.label": {
    "message": "Color",
    "description": "",
    "placeholders": null
  },
  "global.forms.border.corner_radius.help_text": {
    "message": "El valor està expressat en píxels",
    "description": "",
    "placeholders": null
  },
  "global.forms.border.corner_radius.label": {
    "message": "Radi de cantonada",
    "description": "",
    "placeholders": null
  },
  "global.forms.border.label": {
    "message": "Cantonada",
    "description": "",
    "placeholders": null
  },
  "global.forms.border.style.choices.dashed": {
    "message": "Discontínua",
    "description": "",
    "placeholders": null
  },
  "global.forms.border.style.choices.dotted": {
    "message": "De punts",
    "description": "",
    "placeholders": null
  },
  "global.forms.border.style.choices.double": {
    "message": "Doble",
    "description": "",
    "placeholders": null
  },
  "global.forms.border.style.choices.groove": {
    "message": "Ranura",
    "description": "",
    "placeholders": null
  },
  "global.forms.border.style.choices.inset": {
    "message": "Interior",
    "description": "",
    "placeholders": null
  },
  "global.forms.border.style.choices.none": {
    "message": "Cap",
    "description": "",
    "placeholders": null
  },
  "global.forms.border.style.choices.outset": {
    "message": "Exterior",
    "description": "",
    "placeholders": null
  },
  "global.forms.border.style.choices.ridge": {
    "message": "Cresta",
    "description": "",
    "placeholders": null
  },
  "global.forms.border.style.choices.solid": {
    "message": "Sòlid",
    "description": "",
    "placeholders": null
  },
  "global.forms.border.style.label": {
    "message": "Estil",
    "description": "",
    "placeholders": null
  },
  "global.forms.border.width.help_text": {
    "message": "El valor està expressat en píxels",
    "description": "",
    "placeholders": null
  },
  "global.forms.border.width.label": {
    "message": "Amplada",
    "description": "",
    "placeholders": null
  },
  "global.forms.fields.bg_color.label": {
    "message": "Color de fons",
    "description": "",
    "placeholders": null
  },
  "global.forms.fields.border.color.label": {
    "message": "Color",
    "description": "",
    "placeholders": null
  },
  "global.forms.fields.border.corner_radius.help_text": {
    "message": "El valor està expressat en píxels",
    "description": "",
    "placeholders": null
  },
  "global.forms.fields.border.corner_radius.label": {
    "message": "Radi de cantonada",
    "description": "",
    "placeholders": null
  },
  "global.forms.fields.border.label": {
    "message": "Cantonada",
    "description": "",
    "placeholders": null
  },
  "global.forms.fields.border.help_text": {
    "message": "S'aplica a tots els camps de text i els camps de selecció desplegables. No s'aplica a camps de casella de selecció, botó d'opció, text de RGPD i text enriquit.",
    "description": "",
    "placeholders": null
  },
  "global.forms.fields.border.style.choices.dashed": {
    "message": "Discontínua",
    "description": "",
    "placeholders": null
  },
  "global.forms.fields.border.style.choices.dotted": {
    "message": "De punts",
    "description": "",
    "placeholders": null
  },
  "global.forms.fields.border.style.choices.double": {
    "message": "Doble",
    "description": "",
    "placeholders": null
  },
  "global.forms.fields.border.style.choices.groove": {
    "message": "Ranura",
    "description": "",
    "placeholders": null
  },
  "global.forms.fields.border.style.choices.inset": {
    "message": "Interior",
    "description": "",
    "placeholders": null
  },
  "global.forms.fields.border.style.choices.none": {
    "message": "Cap",
    "description": "",
    "placeholders": null
  },
  "global.forms.fields.border.style.choices.outset": {
    "message": "Exterior",
    "description": "",
    "placeholders": null
  },
  "global.forms.fields.border.style.choices.ridge": {
    "message": "Cresta",
    "description": "",
    "placeholders": null
  },
  "global.forms.fields.border.style.choices.solid": {
    "message": "Sòlid",
    "description": "",
    "placeholders": null
  },
  "global.forms.fields.border.style.label": {
    "message": "Estil",
    "description": "",
    "placeholders": null
  },
  "global.forms.fields.border.width.help_text": {
    "message": "El valor està expressat en píxels",
    "description": "",
    "placeholders": null
  },
  "global.forms.fields.border.width.label": {
    "message": "Amplada",
    "description": "",
    "placeholders": null
  },
  "global.forms.fields.font.label": {
    "message": "Tipus de lletra",
    "description": "",
    "placeholders": null
  },
  "global.forms.fields.checkbox_radio.label": {
    "message": "Casella de selecció/botó d'opció",
    "description": "",
    "placeholders": null
  },
  "global.forms.fields.checkbox_radio.help_text": {
    "message": "Controla els camps de casella de selecció/botó d'opció i els camps de casella de selecció del RGPD",
    "description": "",
    "placeholders": null
  },
  "global.forms.fields.checkbox_radio.font.label": {
    "message": "Tipus de lletra",
    "description": "",
    "placeholders": null
  },
  "global.forms.fields.checkbox_radio.font.help_text": {
    "message": "Controla els tipus de lletra dels elements de camp de casella de selecció/botó d'opció i camp de casella de selecció del RGPD",
    "description": "",
    "placeholders": null
  },
  "global.forms.fields.gdpr_text.label": {
    "message": "Text del RGPD",
    "description": "",
    "placeholders": null
  },
  "global.forms.fields.gdpr_text.help_text": {
    "message": "Controla el contingut del paràgraf dels camps del RGPD",
    "description": "",
    "placeholders": null
  },
  "global.forms.fields.gdpr_text.font.label": {
    "message": "Tipus de lletra",
    "description": "",
    "placeholders": null
  },
  "global.forms.fields.rich_text.label": {
    "message": "Text enriquit",
    "description": "",
    "placeholders": null
  },
  "global.forms.fields.rich_text.help_text": {
    "message": "Controla els camps de text enriquit de formulari",
    "description": "",
    "placeholders": null
  },
  "global.forms.fields.rich_text.font.label": {
    "message": "Tipus de lletra",
    "description": "",
    "placeholders": null
  },
  "global.forms.fields.label": {
    "message": "Camps",
    "description": "",
    "placeholders": null
  },
  "global.forms.fields.padding.horizontal.help_text": {
    "message": "El valor està expressat en píxels",
    "description": "",
    "placeholders": null
  },
  "global.forms.fields.padding.horizontal.label": {
    "message": "Esquerra/dreta",
    "description": "",
    "placeholders": null
  },
  "global.forms.fields.padding.label": {
    "message": "Espaiat",
    "description": "",
    "placeholders": null
  },
  "global.forms.fields.padding.help_text": {
    "message": "S'aplica a tots els camps de text i els camps de selecció desplegables. No s'aplica a camps de casella de selecció, botó d'opció, text de RGPD i text enriquit.",
    "description": "",
    "placeholders": null
  },
  "global.forms.fields.padding.vertical.help_text": {
    "message": "El valor està expressat en píxels",
    "description": "",
    "placeholders": null
  },
  "global.forms.fields.padding.vertical.label": {
    "message": "Superior/inferior",
    "description": "",
    "placeholders": null
  },
  "global.forms.fields.placeholder_color.label": {
    "message": "Color del marcador de posició",
    "description": "",
    "placeholders": null
  },
  "global.forms.help_text.label": {
    "message": "Text d'ajuda",
    "description": "",
    "placeholders": null
  },
  "global.forms.label": {
    "message": "Formularis",
    "description": "",
    "placeholders": null
  },
  "global.forms.labels.font.label": {
    "message": "Tipus de lletra",
    "description": "",
    "placeholders": null
  },
  "global.forms.labels.label": {
    "message": "Etiquetes",
    "description": "",
    "placeholders": null
  },
  "global.forms.labels.padding.horizontal.help_text": {
    "message": "El valor està expressat en píxels",
    "description": "",
    "placeholders": null
  },
  "global.forms.labels.padding.horizontal.label": {
    "message": "Esquerra/dreta",
    "description": "",
    "placeholders": null
  },
  "global.forms.labels.padding.label": {
    "message": "Espaiat",
    "description": "",
    "placeholders": null
  },
  "global.forms.labels.padding.vertical.help_text": {
    "message": "El valor està expressat en píxels",
    "description": "",
    "placeholders": null
  },
  "global.forms.labels.padding.vertical.label": {
    "message": "Superior/inferior",
    "description": "",
    "placeholders": null
  },
  "global.forms.padding.horizontal.help_text": {
    "message": "El valor està expressat en píxels",
    "description": "",
    "placeholders": null
  },
  "global.forms.padding.horizontal.label": {
    "message": "Esquerra/dreta",
    "description": "",
    "placeholders": null
  },
  "global.forms.padding.label": {
    "message": "Espaiat",
    "description": "",
    "placeholders": null
  },
  "global.forms.padding.vertical.help_text": {
    "message": "El valor està expressat en píxels",
    "description": "",
    "placeholders": null
  },
  "global.forms.padding.vertical.label": {
    "message": "Superior/inferior",
    "description": "",
    "placeholders": null
  },
  "global.forms.submit.button_size.choices.large": {
    "message": "Gran",
    "description": "",
    "placeholders": null
  },
  "global.forms.submit.button_size.choices.regular": {
    "message": "Normal",
    "description": "",
    "placeholders": null
  },
  "global.forms.submit.button_size.choices.small": {
    "message": "Petit",
    "description": "",
    "placeholders": null
  },
  "global.forms.submit.button_size.label": {
    "message": "Mida del botó",
    "description": "",
    "placeholders": null
  },
  "global.forms.submit.button_style.choices.primary": {
    "message": "Principal",
    "description": "",
    "placeholders": null
  },
  "global.forms.submit.button_style.choices.secondary": {
    "message": "Secundari",
    "description": "",
    "placeholders": null
  },
  "global.forms.submit.button_style.choices.simple": {
    "message": "Senzill",
    "description": "",
    "placeholders": null
  },
  "global.forms.submit.button_style.label": {
    "message": "Estil del botó",
    "description": "",
    "placeholders": null
  },
  "global.forms.submit.label": {
    "message": "Envia",
    "description": "",
    "placeholders": null
  },
  "global.forms.title.bg_color.label": {
    "message": "Color de fons",
    "description": "",
    "placeholders": null
  },
  "global.forms.title.border.color.label": {
    "message": "Color",
    "description": "",
    "placeholders": null
  },
  "global.forms.title.border.corner_radius.help_text": {
    "message": "El valor està expressat en píxels",
    "description": "",
    "placeholders": null
  },
  "global.forms.title.border.corner_radius.label": {
    "message": "Radi de cantonada",
    "description": "",
    "placeholders": null
  },
  "global.forms.title.border.label": {
    "message": "Cantonada",
    "description": "",
    "placeholders": null
  },
  "global.forms.title.border.style.choices.dashed": {
    "message": "Discontínua",
    "description": "",
    "placeholders": null
  },
  "global.forms.title.border.style.choices.dotted": {
    "message": "De punts",
    "description": "",
    "placeholders": null
  },
  "global.forms.title.border.style.choices.double": {
    "message": "Doble",
    "description": "",
    "placeholders": null
  },
  "global.forms.title.border.style.choices.groove": {
    "message": "Ranura",
    "description": "",
    "placeholders": null
  },
  "global.forms.title.border.style.choices.inset": {
    "message": "Interior",
    "description": "",
    "placeholders": null
  },
  "global.forms.title.border.style.choices.none": {
    "message": "Cap",
    "description": "",
    "placeholders": null
  },
  "global.forms.title.border.style.choices.outset": {
    "message": "Exterior",
    "description": "",
    "placeholders": null
  },
  "global.forms.title.border.style.choices.ridge": {
    "message": "Cresta",
    "description": "",
    "placeholders": null
  },
  "global.forms.title.border.style.choices.solid": {
    "message": "Sòlid",
    "description": "",
    "placeholders": null
  },
  "global.forms.title.border.style.label": {
    "message": "Estil",
    "description": "",
    "placeholders": null
  },
  "global.forms.title.border.width.help_text": {
    "message": "El valor està expressat en píxels",
    "description": "",
    "placeholders": null
  },
  "global.forms.title.border.width.label": {
    "message": "Amplada",
    "description": "",
    "placeholders": null
  },
  "global.forms.title.font.label": {
    "message": "Tipus de lletra",
    "description": "",
    "placeholders": null
  },
  "global.forms.title.label": {
    "message": "Títol",
    "description": "",
    "placeholders": null
  },
  "global.forms.title.padding.horizontal.help_text": {
    "message": "El valor està expressat en píxels",
    "description": "",
    "placeholders": null
  },
  "global.forms.title.padding.horizontal.label": {
    "message": "Esquerra/dreta",
    "description": "",
    "placeholders": null
  },
  "global.forms.title.padding.label": {
    "message": "Espaiat",
    "description": "",
    "placeholders": null
  },
  "global.forms.title.padding.vertical.help_text": {
    "message": "El valor està expressat en píxels",
    "description": "",
    "placeholders": null
  },
  "global.forms.title.padding.vertical.label": {
    "message": "Superior/inferior",
    "description": "",
    "placeholders": null
  },
  "global.forms.title.text_transform.choices.capitalize": {
    "message": "Posa en majúscula",
    "description": "",
    "placeholders": null
  },
  "global.forms.title.text_transform.choices.lowercase": {
    "message": "Minúscula",
    "description": "",
    "placeholders": null
  },
  "global.forms.title.text_transform.choices.none": {
    "message": "Cap",
    "description": "",
    "placeholders": null
  },
  "global.forms.title.text_transform.choices.uppercase": {
    "message": "Majúscula",
    "description": "",
    "placeholders": null
  },
  "global.forms.title.text_transform.label": {
    "message": "Transformació del text",
    "description": "",
    "placeholders": null
  },
  "global.header.bg_color.label": {
    "message": "Color de fons",
    "description": "",
    "placeholders": null
  },
  "global.header.border.color.label": {
    "message": "Color",
    "description": "",
    "placeholders": null
  },
  "global.header.border.label": {
    "message": "Vora inferior",
    "description": "",
    "placeholders": null
  },
  "global.header.border.style.choices.dashed": {
    "message": "Discontínua",
    "description": "",
    "placeholders": null
  },
  "global.header.border.style.choices.dotted": {
    "message": "De punts",
    "description": "",
    "placeholders": null
  },
  "global.header.border.style.choices.double": {
    "message": "Doble",
    "description": "",
    "placeholders": null
  },
  "global.header.border.style.choices.groove": {
    "message": "Ranura",
    "description": "",
    "placeholders": null
  },
  "global.header.border.style.choices.inset": {
    "message": "Interior",
    "description": "",
    "placeholders": null
  },
  "global.header.border.style.choices.none": {
    "message": "Cap",
    "description": "",
    "placeholders": null
  },
  "global.header.border.style.choices.outset": {
    "message": "Exterior",
    "description": "",
    "placeholders": null
  },
  "global.header.border.style.choices.ridge": {
    "message": "Cresta",
    "description": "",
    "placeholders": null
  },
  "global.header.border.style.choices.solid": {
    "message": "Sòlid",
    "description": "",
    "placeholders": null
  },
  "global.header.border.style.label": {
    "message": "Estil",
    "description": "",
    "placeholders": null
  },
  "global.header.border.width.help_text": {
    "message": "El valor està expressat en píxels",
    "description": "",
    "placeholders": null
  },
  "global.header.border.width.label": {
    "message": "Amplada",
    "description": "",
    "placeholders": null
  },
  "global.header.font_color.label": {
    "message": "Color del tipus de lletra",
    "description": "",
    "placeholders": null
  },
  "global.header.label": {
    "message": "Capçalera de lloc web",
    "description": "",
    "placeholders": null
  },
  "global.header.menu.active.bg_color.label": {
    "message": "Color de fons",
    "description": "",
    "placeholders": null
  },
  "global.header.menu.active.font.label": {
    "message": "Tipus de lletra",
    "description": "",
    "placeholders": null
  },
  "global.header.menu.active.label": {
    "message": "Actiu",
    "description": "",
    "placeholders": null
  },
  "global.header.menu.font.label": {
    "message": "Tipus de lletra",
    "description": "",
    "placeholders": null
  },
  "global.header.menu.hover.bg_color.label": {
    "message": "Color de fons",
    "description": "",
    "placeholders": null
  },
  "global.header.menu.hover.font.label": {
    "message": "Tipus de lletra",
    "description": "",
    "placeholders": null
  },
  "global.header.menu.hover.label": {
    "message": "Apuntar",
    "description": "",
    "placeholders": null
  },
  "global.header.menu.label": {
    "message": "Menú",
    "description": "",
    "placeholders": null
  },
  "global.header.menu.text_transform.choices.capitalize": {
    "message": "Posa en majúscula",
    "description": "",
    "placeholders": null
  },
  "global.header.menu.text_transform.choices.lowercase": {
    "message": "Minúscula",
    "description": "",
    "placeholders": null
  },
  "global.header.menu.text_transform.choices.none": {
    "message": "Cap",
    "description": "",
    "placeholders": null
  },
  "global.header.menu.text_transform.choices.uppercase": {
    "message": "Majúscula",
    "description": "",
    "placeholders": null
  },
  "global.header.menu.text_transform.label": {
    "message": "Transformació del text",
    "description": "",
    "placeholders": null
  },
  "global.label": {
    "message": "Més opcions de configuració",
    "description": "",
    "placeholders": null
  },
  "global.tables.bg_color.label": {
    "message": "Color de fons",
    "description": "",
    "placeholders": null
  },
  "global.tables.border.color.label": {
    "message": "Color",
    "description": "",
    "placeholders": null
  },
  "global.tables.border.label": {
    "message": "Cantonada",
    "description": "",
    "placeholders": null
  },
  "global.tables.border.style.choices.dashed": {
    "message": "Discontínua",
    "description": "",
    "placeholders": null
  },
  "global.tables.border.style.choices.dotted": {
    "message": "De punts",
    "description": "",
    "placeholders": null
  },
  "global.tables.border.style.choices.double": {
    "message": "Doble",
    "description": "",
    "placeholders": null
  },
  "global.tables.border.style.choices.groove": {
    "message": "Ranura",
    "description": "",
    "placeholders": null
  },
  "global.tables.border.style.choices.inset": {
    "message": "Interior",
    "description": "",
    "placeholders": null
  },
  "global.tables.border.style.choices.none": {
    "message": "Cap",
    "description": "",
    "placeholders": null
  },
  "global.tables.border.style.choices.outset": {
    "message": "Exterior",
    "description": "",
    "placeholders": null
  },
  "global.tables.border.style.choices.ridge": {
    "message": "Cresta",
    "description": "",
    "placeholders": null
  },
  "global.tables.border.style.choices.solid": {
    "message": "Sòlid",
    "description": "",
    "placeholders": null
  },
  "global.tables.border.style.label": {
    "message": "Estil",
    "description": "",
    "placeholders": null
  },
  "global.tables.border.width.help_text": {
    "message": "El valor està expressat en píxels",
    "description": "",
    "placeholders": null
  },
  "global.tables.border.width.label": {
    "message": "Amplada",
    "description": "",
    "placeholders": null
  },
  "global.tables.font_color.label": {
    "message": "Color del tipus de lletra",
    "description": "",
    "placeholders": null
  },
  "global.tables.head.bg_color.label": {
    "message": "Color de fons",
    "description": "",
    "placeholders": null
  },
  "global.tables.head.border.color.label": {
    "message": "Color",
    "description": "",
    "placeholders": null
  },
  "global.tables.head.border.label": {
    "message": "Vora inferior",
    "description": "",
    "placeholders": null
  },
  "global.tables.head.border.style.choices.dashed": {
    "message": "Discontínua",
    "description": "",
    "placeholders": null
  },
  "global.tables.head.border.style.choices.dotted": {
    "message": "De punts",
    "description": "",
    "placeholders": null
  },
  "global.tables.head.border.style.choices.double": {
    "message": "Doble",
    "description": "",
    "placeholders": null
  },
  "global.tables.head.border.style.choices.groove": {
    "message": "Ranura",
    "description": "",
    "placeholders": null
  },
  "global.tables.head.border.style.choices.inset": {
    "message": "Interior",
    "description": "",
    "placeholders": null
  },
  "global.tables.head.border.style.choices.none": {
    "message": "Cap",
    "description": "",
    "placeholders": null
  },
  "global.tables.head.border.style.choices.outset": {
    "message": "Exterior",
    "description": "",
    "placeholders": null
  },
  "global.tables.head.border.style.choices.ridge": {
    "message": "Cresta",
    "description": "",
    "placeholders": null
  },
  "global.tables.head.border.style.choices.solid": {
    "message": "Sòlid",
    "description": "",
    "placeholders": null
  },
  "global.tables.head.border.style.label": {
    "message": "Estil",
    "description": "",
    "placeholders": null
  },
  "global.tables.head.border.width.help_text": {
    "message": "El valor està expressat en píxels",
    "description": "",
    "placeholders": null
  },
  "global.tables.head.border.width.label": {
    "message": "Amplada",
    "description": "",
    "placeholders": null
  },
  "global.tables.head.font_color.label": {
    "message": "Color del tipus de lletra",
    "description": "",
    "placeholders": null
  },
  "global.tables.head.label": {
    "message": "Capçalera de taula",
    "description": "",
    "placeholders": null
  },
  "global.tables.label": {
    "message": "Taules",
    "description": "",
    "placeholders": null
  },
  "global.tables.padding.horizontal.help_text": {
    "message": "El valor està expressat en píxels",
    "description": "",
    "placeholders": null
  },
  "global.tables.padding.horizontal.label": {
    "message": "Esquerra/dreta",
    "description": "",
    "placeholders": null
  },
  "global.tables.padding.label": {
    "message": "Espaiat",
    "description": "",
    "placeholders": null
  },
  "global.tables.padding.vertical.help_text": {
    "message": "El valor està expressat en píxels",
    "description": "",
    "placeholders": null
  },
  "global.tables.padding.vertical.label": {
    "message": "Superior/inferior",
    "description": "",
    "placeholders": null
  },
  "global.typography.body_font.label": {
    "message": "Cos",
    "description": "",
    "placeholders": null
  },
  "global.typography.h1.font.label": {
    "message": "Tipus de lletra",
    "description": "",
    "placeholders": null
  },
  "global.typography.h1.label": {
    "message": "Títol u (H1)",
    "description": "",
    "placeholders": null
  },
  "global.typography.h1.letter_spacing.help_text": {
    "message": "El valor està expressat en píxels",
    "description": "",
    "placeholders": null
  },
  "global.typography.h1.letter_spacing.label": {
    "message": "Espaiat de les lletres",
    "description": "",
    "placeholders": null
  },
  "global.typography.h1.text_transform.choices.capitalize": {
    "message": "Posa en majúscula",
    "description": "",
    "placeholders": null
  },
  "global.typography.h1.text_transform.choices.lowercase": {
    "message": "Minúscula",
    "description": "",
    "placeholders": null
  },
  "global.typography.h1.text_transform.choices.none": {
    "message": "Cap",
    "description": "",
    "placeholders": null
  },
  "global.typography.h1.text_transform.choices.uppercase": {
    "message": "Majúscula",
    "description": "",
    "placeholders": null
  },
  "global.typography.h1.text_transform.label": {
    "message": "Transformació del text",
    "description": "",
    "placeholders": null
  },
  "global.typography.h2.font.label": {
    "message": "Tipus de lletra",
    "description": "",
    "placeholders": null
  },
  "global.typography.h2.label": {
    "message": "Títol dos (H1)",
    "description": "",
    "placeholders": null
  },
  "global.typography.h2.letter_spacing.help_text": {
    "message": "El valor està expressat en píxels",
    "description": "",
    "placeholders": null
  },
  "global.typography.h2.letter_spacing.label": {
    "message": "Espaiat de les lletres",
    "description": "",
    "placeholders": null
  },
  "global.typography.h2.text_transform.choices.capitalize": {
    "message": "Posa en majúscula",
    "description": "",
    "placeholders": null
  },
  "global.typography.h2.text_transform.choices.lowercase": {
    "message": "Minúscula",
    "description": "",
    "placeholders": null
  },
  "global.typography.h2.text_transform.choices.none": {
    "message": "Cap",
    "description": "",
    "placeholders": null
  },
  "global.typography.h2.text_transform.choices.uppercase": {
    "message": "Majúscula",
    "description": "",
    "placeholders": null
  },
  "global.typography.h2.text_transform.label": {
    "message": "Transformació del text",
    "description": "",
    "placeholders": null
  },
  "global.typography.h3.font.label": {
    "message": "Tipus de lletra",
    "description": "",
    "placeholders": null
  },
  "global.typography.h3.label": {
    "message": "Títol tres (H3)",
    "description": "",
    "placeholders": null
  },
  "global.typography.h3.letter_spacing.help_text": {
    "message": "El valor està expressat en píxels",
    "description": "",
    "placeholders": null
  },
  "global.typography.h3.letter_spacing.label": {
    "message": "Espaiat de les lletres",
    "description": "",
    "placeholders": null
  },
  "global.typography.h3.text_transform.choices.capitalize": {
    "message": "Posa en majúscula",
    "description": "",
    "placeholders": null
  },
  "global.typography.h3.text_transform.choices.lowercase": {
    "message": "Minúscula",
    "description": "",
    "placeholders": null
  },
  "global.typography.h3.text_transform.choices.none": {
    "message": "Cap",
    "description": "",
    "placeholders": null
  },
  "global.typography.h3.text_transform.choices.uppercase": {
    "message": "Majúscula",
    "description": "",
    "placeholders": null
  },
  "global.typography.h3.text_transform.label": {
    "message": "Transformació del text",
    "description": "",
    "placeholders": null
  },
  "global.typography.h4.font.label": {
    "message": "Tipus de lletra",
    "description": "",
    "placeholders": null
  },
  "global.typography.h4.label": {
    "message": "Títol quatre (H4)",
    "description": "",
    "placeholders": null
  },
  "global.typography.h4.letter_spacing.help_text": {
    "message": "El valor està expressat en píxels",
    "description": "",
    "placeholders": null
  },
  "global.typography.h4.letter_spacing.label": {
    "message": "Espaiat de les lletres",
    "description": "",
    "placeholders": null
  },
  "global.typography.h4.text_transform.choices.capitalize": {
    "message": "Posa en majúscula",
    "description": "",
    "placeholders": null
  },
  "global.typography.h4.text_transform.choices.lowercase": {
    "message": "Minúscula",
    "description": "",
    "placeholders": null
  },
  "global.typography.h4.text_transform.choices.none": {
    "message": "Cap",
    "description": "",
    "placeholders": null
  },
  "global.typography.h4.text_transform.choices.uppercase": {
    "message": "Majúscula",
    "description": "",
    "placeholders": null
  },
  "global.typography.h4.text_transform.label": {
    "message": "Transformació del text",
    "description": "",
    "placeholders": null
  },
  "global.typography.h5.font.label": {
    "message": "Tipus de lletra",
    "description": "",
    "placeholders": null
  },
  "global.typography.h5.label": {
    "message": "Títol cinc (H5)",
    "description": "",
    "placeholders": null
  },
  "global.typography.h5.letter_spacing.help_text": {
    "message": "El valor està expressat en píxels",
    "description": "",
    "placeholders": null
  },
  "global.typography.h5.letter_spacing.label": {
    "message": "Espaiat de les lletres",
    "description": "",
    "placeholders": null
  },
  "global.typography.h5.text_transform.choices.capitalize": {
    "message": "Posa en majúscula",
    "description": "",
    "placeholders": null
  },
  "global.typography.h5.text_transform.choices.lowercase": {
    "message": "Minúscula",
    "description": "",
    "placeholders": null
  },
  "global.typography.h5.text_transform.choices.none": {
    "message": "Cap",
    "description": "",
    "placeholders": null
  },
  "global.typography.h5.text_transform.choices.uppercase": {
    "message": "Majúscula",
    "description": "",
    "placeholders": null
  },
  "global.typography.h5.text_transform.label": {
    "message": "Transformació del text",
    "description": "",
    "placeholders": null
  },
  "global.typography.h6.font.label": {
    "message": "Tipus de lletra",
    "description": "",
    "placeholders": null
  },
  "global.typography.h6.label": {
    "message": "Títol sis (H6)",
    "description": "",
    "placeholders": null
  },
  "global.typography.h6.letter_spacing.help_text": {
    "message": "El valor està expressat en píxels",
    "description": "",
    "placeholders": null
  },
  "global.typography.h6.letter_spacing.label": {
    "message": "Espaiat de les lletres",
    "description": "",
    "placeholders": null
  },
  "global.typography.h6.text_transform.choices.capitalize": {
    "message": "Posa en majúscula",
    "description": "",
    "placeholders": null
  },
  "global.typography.h6.text_transform.choices.lowercase": {
    "message": "Minúscula",
    "description": "",
    "placeholders": null
  },
  "global.typography.h6.text_transform.choices.none": {
    "message": "Cap",
    "description": "",
    "placeholders": null
  },
  "global.typography.h6.text_transform.choices.uppercase": {
    "message": "Majúscula",
    "description": "",
    "placeholders": null
  },
  "global.typography.h6.text_transform.label": {
    "message": "Transformació del text",
    "description": "",
    "placeholders": null
  },
  "global.typography.headings.font.label": {
    "message": "Tipus de lletra",
    "description": "",
    "placeholders": null
  },
  "global.typography.headings.heading_toggle.label": {
    "message": "Mostra els controls de cada nivell de títol",
    "description": "",
    "placeholders": null
  },
  "global.typography.headings.label": {
    "message": "Títols",
    "description": "",
    "placeholders": null
  },
  "global.typography.headings.text_transform.choices.capitalize": {
    "message": "Posa en majúscula",
    "description": "",
    "placeholders": null
  },
  "global.typography.headings.text_transform.choices.lowercase": {
    "message": "Minúscula",
    "description": "",
    "placeholders": null
  },
  "global.typography.headings.text_transform.choices.none": {
    "message": "Cap",
    "description": "",
    "placeholders": null
  },
  "global.typography.headings.text_transform.choices.uppercase": {
    "message": "Majúscula",
    "description": "",
    "placeholders": null
  },
  "global.typography.headings.text_transform.label": {
    "message": "Transformació del text",
    "description": "",
    "placeholders": null
  },
  "global.typography.label": {
    "message": "Tipografia",
    "description": "",
    "placeholders": null
  },
  "global.typography.links.hover.label": {
    "message": "Apuntar",
    "description": "",
    "placeholders": null
  },
  "global.typography.links.label": {
    "message": "Enllaços",
    "description": "",
    "placeholders": null
  },
  "spacing.content_width.help_text": {
    "message": "El valor està expressat en píxels",
    "description": "",
    "placeholders": null
  },
  "spacing.content_width.label": {
    "message": "Amplada màxima del contingut",
    "description": "",
    "placeholders": null
  },
  "spacing.label": {
    "message": "Espaiat",
    "description": "",
    "placeholders": null
  },
  "spacing.vertical_spacing.help_text": {
    "message": "El valor està expressat en píxels",
    "description": "",
    "placeholders": null
  },
  "spacing.vertical_spacing.label": {
    "message": "Espaiat vertical",
    "description": "",
    "placeholders": null
  }
}
