{
  "global" : false,
  "content_types" : [ "BLOG_LISTING" ],
  "master_language" : "en",
  "icon" : "../../../mV0_hubspot/session/images/module-icons/ellipses.svg",
  "host_template_types" : [ "BLOG_LISTING" ],
  "module_id" : 67993727528,
  "label" : "Blog pagination",
  "is_available_for_new_content" : true
}