{
  "global" : false,
  "content_types" : [ "LANDING_PAGE", "SITE_PAGE", "BLOG_LISTING", "BLOG_POST" ],
  "master_language" : "en",
  "icon" : "../../../mV0_hubspot/session/images/module-icons/cta.svg",
  "host_template_types" : [ "PAGE", "BLOG_LISTING", "BLOG_POST" ],
  "module_id" : 67994554729,
  "label" : "Button",
  "is_available_for_new_content" : true
}