{
  "external_js" : [ "https://cdnjs.cloudflare.com/ajax/libs/tiny-slider/2.9.2/min/tiny-slider.js" ],
  "global" : false,
  "content_types" : [ "LANDING_PAGE", "SITE_PAGE", "BLOG_LISTING", "BLOG_POST" ],
  "master_language" : "en",
  "icon" : "../../../mV0_hubspot/session/images/module-icons/insert-quote.svg",
  "host_template_types" : [ "PAGE", "BLOG_LISTING", "BLOG_POST" ],
  "module_id" : 67994653839,
  "label" : "Testimonial slider",
  "is_available_for_new_content" : true
}