{
  "name": {
    "message": "Hasil Pencarian Situs",
    "description": "",
    "placeholders": null
  },
  "display_featured_images.label": {
    "message": "Tampilkan gambar unggulan",
    "description": "",
    "placeholders": null
  }
}
