[ {
  "id" : "3e4dc974-7715-d667-557a-d9a43b9b732c",
  "name" : "logo_field",
  "display_width" : null,
  "label" : "Logo",
  "required" : false,
  "locked" : false,
  "show_loading" : false,
  "type" : "logo",
  "default" : {
    "override_inherited_src" : false,
    "src" : null,
    "alt" : null
  }
}, {
  "id" : "18e71d0d-f72f-7269-d319-12a5d3c48bdc",
  "name" : "menu_field",
  "display_width" : null,
  "label" : "Menu",
  "required" : false,
  "locked" : false,
  "type" : "menu",
  "default" : 156422619015
} ]