{
  "name" : {
    "message" : "Liste des articles de blogue",
    "description" : "",
    "placeholders" : null
  },
  "number_of_posts.label" : {
    "message" : "Nombre de publications",
    "description" : "",
    "placeholders" : null
  },
  "read_more.default" : {
    "message" : "En savoir plus",
    "description" : "",
    "placeholders" : null
  },
  "read_more.label" : {
    "message" : "Plus de texte",
    "description" : "",
    "placeholders" : null
  },
  "select_blog.label" : {
    "message" : "Sélectionner un blogue",
    "description" : "",
    "placeholders" : null
  },
  "select_blog_type.choices.popular_posts" : {
    "message" : "Publications populaires",
    "description" : "",
    "placeholders" : null
  },
  "select_blog_type.choices.recent_posts" : {
    "message" : "Messages récents",
    "description" : "",
    "placeholders" : null
  },
  "select_blog_type.label" : {
    "message" : "Sélectionnez le type de blogue",
    "description" : "",
    "placeholders" : null
  },
  "style.background_color.label" : {
    "message" : "Couleur de fond",
    "description" : "",
    "placeholders" : null
  },
  "style.label" : {
    "message" : "Options de style",
    "description" : "",
    "placeholders" : null
  },
  "style.override_default_style.label" : {
    "message" : "Remplacer le style par défaut",
    "description" : "",
    "placeholders" : null
  },
  "style.text_color.label" : {
    "message" : "Couleur du texte",
    "description" : "",
    "placeholders" : null
  }
}