{
  "name": {
    "message": "Rezultati pretraživanja web-mjesta",
    "description": "",
    "placeholders": null
  },
  "display_featured_images.label": {
    "message": "Prikaži predstavljene slike",
    "description": "",
    "placeholders": null
  }
}
