{
  "name": {
    "message": "Резултати от търсенето в сайта",
    "description": "",
    "placeholders": null
  },
  "display_featured_images.label": {
    "message": "Показване на избрани изображения",
    "description": "",
    "placeholders": null
  }
}
