{
  "name": {
    "message": "Resultats de la cerca del lloc",
    "description": "",
    "placeholders": null
  },
  "display_featured_images.label": {
    "message": "Mostra les imatges destacades",
    "description": "",
    "placeholders": null
  }
}
