{
  "name": {
    "message": "सर्च रिजल्ट साइट",
    "description": "",
    "placeholders": null
  },
  "display_featured_images.label": {
    "message": "फ़ीचर्ड इमेज प्रदर्शित करें",
    "description": "",
    "placeholders": null
  }
}
