{
  "heading.default" : {
    "message" : "Artículos relacionados",
    "description" : "",
    "placeholders" : null
  },
  "heading.label" : {
    "message" : "Encabezado",
    "description" : "",
    "placeholders" : null
  },
  "name" : {
    "message" : "Lista de publicaciones relacionadas",
    "description" : "",
    "placeholders" : null
  },
  "read_more_text.default" : {
    "message" : "Más información",
    "description" : "",
    "placeholders" : null
  },
  "read_more_text.label" : {
    "message" : "Leer más texto",
    "description" : "",
    "placeholders" : null
  }
}