{
  "name": {
    "message": "Resultados da pesquisa do site",
    "description": "",
    "placeholders": null
  },
  "display_featured_images.label": {
    "message": "Apresenta imagens em destaque",
    "description": "",
    "placeholders": null
  }
}
