{
  "heading.default" : {
    "message" : "Povezani članki",
    "description" : "",
    "placeholders" : null
  },
  "heading.label" : {
    "message" : "Naslov",
    "description" : "",
    "placeholders" : null
  },
  "name" : {
    "message" : "Seznam povezane objave",
    "description" : "",
    "placeholders" : null
  },
  "read_more_text.default" : {
    "message" : "Preberi več",
    "description" : "",
    "placeholders" : null
  },
  "read_more_text.label" : {
    "message" : "Preberi več besedila",
    "description" : "",
    "placeholders" : null
  }
}