{
  "label": "New Blog Heading Theme",
  "global": false,
  "content_types": [
    "LANDING_PAGE",
    "SITE_PAGE",
    "BLOG_LISTING",
    "BLOG_POST"
  ],
  "host_template_types": [
    "PAGE",
    "BLOG_POST",
    "BLOG_LISTING"
  ],
  "is_available_for_new_content": true
}