{
  "name": {
    "message": "Session",
    "description": "",
    "placeholders": null
  },
  "colors.body_bg.label": {
    "message": "Body background colour",
    "description": "",
    "placeholders": null
  },
  "colors.label": {
    "message": "Colours",
    "description": "",
    "placeholders": null
  },
  "colors.primary.label": {
    "message": "Primary",
    "description": "",
    "placeholders": null
  },
  "colors.secondary.label": {
    "message": "Secondary",
    "description": "",
    "placeholders": null
  },
  "fonts.label": {
    "message": "Fonts",
    "description": "",
    "placeholders": null
  },
  "fonts.primary.label": {
    "message": "Primary",
    "description": "",
    "placeholders": null
  },
  "fonts.secondary.label": {
    "message": "Secondary",
    "description": "",
    "placeholders": null
  },
  "global.blog.blog_banner_images.blog_banner_bg.choices.color": {
    "message": "Solid colour",
    "description": "",
    "placeholders": null
  },
  "global.blog.blog_banner_images.blog_banner_bg.choices.image": {
    "message": "Use an image",
    "description": "",
    "placeholders": null
  },
  "global.blog.blog_banner_images.blog_banner_bg.label": {
    "message": "Background",
    "description": "",
    "placeholders": null
  },
  "global.blog.blog_banner_images.blog_banner_bg_color.help_text": {
    "message": "The banner's background colour will be used as the solid background unless a background image is set. In this case, the colour will be used as a fallback colour to the banner image",
    "description": "",
    "placeholders": null
  },
  "global.blog.blog_banner_images.blog_banner_bg_color.label": {
    "message": "Background colour",
    "description": "",
    "placeholders": null
  },
  "global.blog.blog_banner_images.label": {
    "message": "Banner",
    "description": "",
    "placeholders": null
  },
  "global.blog.blog_banner_images.listing_bg.help_text": {
    "message": "Background image used on the blog listing page for all blogs using the 'Session - blog listing' template",
    "description": "",
    "placeholders": null
  },
  "global.blog.blog_banner_images.listing_bg.label": {
    "message": "Blog listing banner image",
    "description": "",
    "placeholders": null
  },
  "global.blog.label": {
    "message": "Blog",
    "description": "",
    "placeholders": null
  },
  "global.blog.tags.bg_color.label": {
    "message": "Background colour",
    "description": "",
    "placeholders": null
  },
  "global.blog.tags.color.label": {
    "message": "Colour",
    "description": "",
    "placeholders": null
  },
  "global.blog.tags.label": {
    "message": "Tags",
    "description": "",
    "placeholders": null
  },
  "global.buttons.label": {
    "message": "Buttons",
    "description": "",
    "placeholders": null
  },
  "global.buttons.primary.bg_color.label": {
    "message": "Background colour",
    "description": "",
    "placeholders": null
  },
  "global.buttons.primary.border.color.label": {
    "message": "Colour",
    "description": "",
    "placeholders": null
  },
  "global.buttons.primary.border.corner_radius.help_text": {
    "message": "Value is in pixels",
    "description": "",
    "placeholders": null
  },
  "global.buttons.primary.border.corner_radius.label": {
    "message": "Corner radius",
    "description": "",
    "placeholders": null
  },
  "global.buttons.primary.border.label": {
    "message": "Border",
    "description": "",
    "placeholders": null
  },
  "global.buttons.primary.border.style.choices.dashed": {
    "message": "Dashed",
    "description": "",
    "placeholders": null
  },
  "global.buttons.primary.border.style.choices.dotted": {
    "message": "Dotted",
    "description": "",
    "placeholders": null
  },
  "global.buttons.primary.border.style.choices.double": {
    "message": "Double",
    "description": "",
    "placeholders": null
  },
  "global.buttons.primary.border.style.choices.groove": {
    "message": "Groove",
    "description": "",
    "placeholders": null
  },
  "global.buttons.primary.border.style.choices.inset": {
    "message": "Inset",
    "description": "",
    "placeholders": null
  },
  "global.buttons.primary.border.style.choices.none": {
    "message": "None",
    "description": "",
    "placeholders": null
  },
  "global.buttons.primary.border.style.choices.outset": {
    "message": "Outset",
    "description": "",
    "placeholders": null
  },
  "global.buttons.primary.border.style.choices.ridge": {
    "message": "Ridge",
    "description": "",
    "placeholders": null
  },
  "global.buttons.primary.border.style.choices.solid": {
    "message": "Solid",
    "description": "",
    "placeholders": null
  },
  "global.buttons.primary.border.style.label": {
    "message": "Style",
    "description": "",
    "placeholders": null
  },
  "global.buttons.primary.border.width.help_text": {
    "message": "Value is in pixels",
    "description": "",
    "placeholders": null
  },
  "global.buttons.primary.border.width.label": {
    "message": "Width",
    "description": "",
    "placeholders": null
  },
  "global.buttons.primary.font.label": {
    "message": "Font",
    "description": "",
    "placeholders": null
  },
  "global.buttons.primary.hover.bg_color.label": {
    "message": "Background colour",
    "description": "",
    "placeholders": null
  },
  "global.buttons.primary.hover.border.color.label": {
    "message": "Colour",
    "description": "",
    "placeholders": null
  },
  "global.buttons.primary.hover.border.label": {
    "message": "Border",
    "description": "",
    "placeholders": null
  },
  "global.buttons.primary.hover.border.style.choices.dashed": {
    "message": "Dashed",
    "description": "",
    "placeholders": null
  },
  "global.buttons.primary.hover.border.style.choices.dotted": {
    "message": "Dotted",
    "description": "",
    "placeholders": null
  },
  "global.buttons.primary.hover.border.style.choices.double": {
    "message": "Double",
    "description": "",
    "placeholders": null
  },
  "global.buttons.primary.hover.border.style.choices.groove": {
    "message": "Groove",
    "description": "",
    "placeholders": null
  },
  "global.buttons.primary.hover.border.style.choices.inset": {
    "message": "Inset",
    "description": "",
    "placeholders": null
  },
  "global.buttons.primary.hover.border.style.choices.none": {
    "message": "None",
    "description": "",
    "placeholders": null
  },
  "global.buttons.primary.hover.border.style.choices.outset": {
    "message": "Outset",
    "description": "",
    "placeholders": null
  },
  "global.buttons.primary.hover.border.style.choices.ridge": {
    "message": "Ridge",
    "description": "",
    "placeholders": null
  },
  "global.buttons.primary.hover.border.style.choices.solid": {
    "message": "Solid",
    "description": "",
    "placeholders": null
  },
  "global.buttons.primary.hover.border.style.label": {
    "message": "Style",
    "description": "",
    "placeholders": null
  },
  "global.buttons.primary.hover.border.width.help_text": {
    "message": "Value is in pixels",
    "description": "",
    "placeholders": null
  },
  "global.buttons.primary.hover.border.width.label": {
    "message": "Width",
    "description": "",
    "placeholders": null
  },
  "global.buttons.primary.hover.font.label": {
    "message": "Font",
    "description": "",
    "placeholders": null
  },
  "global.buttons.primary.hover.label": {
    "message": "Hover",
    "description": "",
    "placeholders": null
  },
  "global.buttons.primary.label": {
    "message": "Primary",
    "description": "",
    "placeholders": null
  },
  "global.buttons.primary.text_transform.choices.capitalize": {
    "message": "Capitalise",
    "description": "",
    "placeholders": null
  },
  "global.buttons.primary.text_transform.choices.lowercase": {
    "message": "Lowercase",
    "description": "",
    "placeholders": null
  },
  "global.buttons.primary.text_transform.choices.none": {
    "message": "None",
    "description": "",
    "placeholders": null
  },
  "global.buttons.primary.text_transform.choices.uppercase": {
    "message": "Uppercase",
    "description": "",
    "placeholders": null
  },
  "global.buttons.primary.text_transform.label": {
    "message": "Text transform",
    "description": "",
    "placeholders": null
  },
  "global.buttons.secondary.bg_color.label": {
    "message": "Background colour",
    "description": "",
    "placeholders": null
  },
  "global.buttons.secondary.border.color.label": {
    "message": "Colour",
    "description": "",
    "placeholders": null
  },
  "global.buttons.secondary.border.corner_radius.help_text": {
    "message": "Value is in pixels",
    "description": "",
    "placeholders": null
  },
  "global.buttons.secondary.border.corner_radius.label": {
    "message": "Corner radius",
    "description": "",
    "placeholders": null
  },
  "global.buttons.secondary.border.label": {
    "message": "Border",
    "description": "",
    "placeholders": null
  },
  "global.buttons.secondary.border.style.choices.dashed": {
    "message": "Dashed",
    "description": "",
    "placeholders": null
  },
  "global.buttons.secondary.border.style.choices.dotted": {
    "message": "Dotted",
    "description": "",
    "placeholders": null
  },
  "global.buttons.secondary.border.style.choices.double": {
    "message": "Double",
    "description": "",
    "placeholders": null
  },
  "global.buttons.secondary.border.style.choices.groove": {
    "message": "Groove",
    "description": "",
    "placeholders": null
  },
  "global.buttons.secondary.border.style.choices.inset": {
    "message": "Inset",
    "description": "",
    "placeholders": null
  },
  "global.buttons.secondary.border.style.choices.none": {
    "message": "None",
    "description": "",
    "placeholders": null
  },
  "global.buttons.secondary.border.style.choices.outset": {
    "message": "Outset",
    "description": "",
    "placeholders": null
  },
  "global.buttons.secondary.border.style.choices.ridge": {
    "message": "Ridge",
    "description": "",
    "placeholders": null
  },
  "global.buttons.secondary.border.style.choices.solid": {
    "message": "Solid",
    "description": "",
    "placeholders": null
  },
  "global.buttons.secondary.border.style.label": {
    "message": "Style",
    "description": "",
    "placeholders": null
  },
  "global.buttons.secondary.border.width.help_text": {
    "message": "Value is in pixels",
    "description": "",
    "placeholders": null
  },
  "global.buttons.secondary.border.width.label": {
    "message": "Width",
    "description": "",
    "placeholders": null
  },
  "global.buttons.secondary.font.label": {
    "message": "Font",
    "description": "",
    "placeholders": null
  },
  "global.buttons.secondary.hover.bg_color.label": {
    "message": "Background colour",
    "description": "",
    "placeholders": null
  },
  "global.buttons.secondary.hover.border.color.label": {
    "message": "Colour",
    "description": "",
    "placeholders": null
  },
  "global.buttons.secondary.hover.border.label": {
    "message": "Border",
    "description": "",
    "placeholders": null
  },
  "global.buttons.secondary.hover.border.style.choices.dashed": {
    "message": "Dashed",
    "description": "",
    "placeholders": null
  },
  "global.buttons.secondary.hover.border.style.choices.dotted": {
    "message": "Dotted",
    "description": "",
    "placeholders": null
  },
  "global.buttons.secondary.hover.border.style.choices.double": {
    "message": "Double",
    "description": "",
    "placeholders": null
  },
  "global.buttons.secondary.hover.border.style.choices.groove": {
    "message": "Groove",
    "description": "",
    "placeholders": null
  },
  "global.buttons.secondary.hover.border.style.choices.inset": {
    "message": "Inset",
    "description": "",
    "placeholders": null
  },
  "global.buttons.secondary.hover.border.style.choices.none": {
    "message": "None",
    "description": "",
    "placeholders": null
  },
  "global.buttons.secondary.hover.border.style.choices.outset": {
    "message": "Outset",
    "description": "",
    "placeholders": null
  },
  "global.buttons.secondary.hover.border.style.choices.ridge": {
    "message": "Ridge",
    "description": "",
    "placeholders": null
  },
  "global.buttons.secondary.hover.border.style.choices.solid": {
    "message": "Solid",
    "description": "",
    "placeholders": null
  },
  "global.buttons.secondary.hover.border.style.label": {
    "message": "Style",
    "description": "",
    "placeholders": null
  },
  "global.buttons.secondary.hover.border.width.help_text": {
    "message": "Value is in pixels",
    "description": "",
    "placeholders": null
  },
  "global.buttons.secondary.hover.border.width.label": {
    "message": "Width",
    "description": "",
    "placeholders": null
  },
  "global.buttons.secondary.hover.font.label": {
    "message": "Font",
    "description": "",
    "placeholders": null
  },
  "global.buttons.secondary.hover.label": {
    "message": "Hover",
    "description": "",
    "placeholders": null
  },
  "global.buttons.secondary.label": {
    "message": "Secondary",
    "description": "",
    "placeholders": null
  },
  "global.buttons.secondary.text_transform.choices.capitalize": {
    "message": "Capitalise",
    "description": "",
    "placeholders": null
  },
  "global.buttons.secondary.text_transform.choices.lowercase": {
    "message": "Lowercase",
    "description": "",
    "placeholders": null
  },
  "global.buttons.secondary.text_transform.choices.none": {
    "message": "None",
    "description": "",
    "placeholders": null
  },
  "global.buttons.secondary.text_transform.choices.uppercase": {
    "message": "Uppercase",
    "description": "",
    "placeholders": null
  },
  "global.buttons.secondary.text_transform.label": {
    "message": "Text transform",
    "description": "",
    "placeholders": null
  },
  "global.buttons.simple.font.label": {
    "message": "Font",
    "description": "",
    "placeholders": null
  },
  "global.buttons.simple.hover.font.label": {
    "message": "Font",
    "description": "",
    "placeholders": null
  },
  "global.buttons.simple.hover.label": {
    "message": "Hover",
    "description": "",
    "placeholders": null
  },
  "global.buttons.simple.hover.underline.add_underline.label": {
    "message": "Add underline",
    "description": "",
    "placeholders": null
  },
  "global.buttons.simple.hover.underline.color.label": {
    "message": "Colour",
    "description": "",
    "placeholders": null
  },
  "global.buttons.simple.hover.underline.label": {
    "message": "Underline",
    "description": "",
    "placeholders": null
  },
  "global.buttons.simple.hover.underline.width.help_text": {
    "message": "Value is in pixels",
    "description": "",
    "placeholders": null
  },
  "global.buttons.simple.hover.underline.width.label": {
    "message": "Width",
    "description": "",
    "placeholders": null
  },
  "global.buttons.simple.label": {
    "message": "Simple",
    "description": "",
    "placeholders": null
  },
  "global.buttons.simple.text_transform.choices.capitalize": {
    "message": "Capitalise",
    "description": "",
    "placeholders": null
  },
  "global.buttons.simple.text_transform.choices.lowercase": {
    "message": "Lowercase",
    "description": "",
    "placeholders": null
  },
  "global.buttons.simple.text_transform.choices.none": {
    "message": "None",
    "description": "",
    "placeholders": null
  },
  "global.buttons.simple.text_transform.choices.uppercase": {
    "message": "Uppercase",
    "description": "",
    "placeholders": null
  },
  "global.buttons.simple.text_transform.label": {
    "message": "Text transform",
    "description": "",
    "placeholders": null
  },
  "global.buttons.simple.underline.add_underline.label": {
    "message": "Add underline",
    "description": "",
    "placeholders": null
  },
  "global.buttons.simple.underline.color.label": {
    "message": "Colour",
    "description": "",
    "placeholders": null
  },
  "global.buttons.simple.underline.label": {
    "message": "Underline",
    "description": "",
    "placeholders": null
  },
  "global.buttons.simple.underline.width.help_text": {
    "message": "Value is in pixels",
    "description": "",
    "placeholders": null
  },
  "global.buttons.simple.underline.width.label": {
    "message": "Width",
    "description": "",
    "placeholders": null
  },
  "global.buttons.size.label": {
    "message": "Size",
    "description": "",
    "placeholders": null
  },
  "global.buttons.size.large.font_size.help_text": {
    "message": "Value is in pixels",
    "description": "",
    "placeholders": null
  },
  "global.buttons.size.large.font_size.label": {
    "message": "Font size",
    "description": "",
    "placeholders": null
  },
  "global.buttons.size.large.horizontal_spacing.help_text": {
    "message": "Value is in pixels",
    "description": "",
    "placeholders": null
  },
  "global.buttons.size.large.horizontal_spacing.label": {
    "message": "Horizontal spacing",
    "description": "",
    "placeholders": null
  },
  "global.buttons.size.large.label": {
    "message": "Large",
    "description": "",
    "placeholders": null
  },
  "global.buttons.size.large.vertical_spacing.help_text": {
    "message": "Value is in pixels",
    "description": "",
    "placeholders": null
  },
  "global.buttons.size.large.vertical_spacing.label": {
    "message": "Vertical spacing",
    "description": "",
    "placeholders": null
  },
  "global.buttons.size.regular.font_size.help_text": {
    "message": "Value is in pixels",
    "description": "",
    "placeholders": null
  },
  "global.buttons.size.regular.font_size.label": {
    "message": "Font size",
    "description": "",
    "placeholders": null
  },
  "global.buttons.size.regular.horizontal_spacing.help_text": {
    "message": "Value is in pixels",
    "description": "",
    "placeholders": null
  },
  "global.buttons.size.regular.horizontal_spacing.label": {
    "message": "Horizontal spacing",
    "description": "",
    "placeholders": null
  },
  "global.buttons.size.regular.label": {
    "message": "Regular",
    "description": "",
    "placeholders": null
  },
  "global.buttons.size.regular.vertical_spacing.help_text": {
    "message": "Value is in pixels",
    "description": "",
    "placeholders": null
  },
  "global.buttons.size.regular.vertical_spacing.label": {
    "message": "Vertical spacing",
    "description": "",
    "placeholders": null
  },
  "global.buttons.size.small.font_size.help_text": {
    "message": "Value is in pixels",
    "description": "",
    "placeholders": null
  },
  "global.buttons.size.small.font_size.label": {
    "message": "Font size",
    "description": "",
    "placeholders": null
  },
  "global.buttons.size.small.horizontal_spacing.help_text": {
    "message": "Value is in pixels",
    "description": "",
    "placeholders": null
  },
  "global.buttons.size.small.horizontal_spacing.label": {
    "message": "Horizontal spacing",
    "description": "",
    "placeholders": null
  },
  "global.buttons.size.small.label": {
    "message": "Small",
    "description": "",
    "placeholders": null
  },
  "global.buttons.size.small.vertical_spacing.help_text": {
    "message": "Value is in pixels",
    "description": "",
    "placeholders": null
  },
  "global.buttons.size.small.vertical_spacing.label": {
    "message": "Vertical spacing",
    "description": "",
    "placeholders": null
  },
  "global.footer.bg_color.label": {
    "message": "Background colour",
    "description": "",
    "placeholders": null
  },
  "global.footer.border.color.label": {
    "message": "Colour",
    "description": "",
    "placeholders": null
  },
  "global.footer.border.label": {
    "message": "Top border",
    "description": "",
    "placeholders": null
  },
  "global.footer.border.style.choices.dashed": {
    "message": "Dashed",
    "description": "",
    "placeholders": null
  },
  "global.footer.border.style.choices.dotted": {
    "message": "Dotted",
    "description": "",
    "placeholders": null
  },
  "global.footer.border.style.choices.double": {
    "message": "Double",
    "description": "",
    "placeholders": null
  },
  "global.footer.border.style.choices.groove": {
    "message": "Groove",
    "description": "",
    "placeholders": null
  },
  "global.footer.border.style.choices.inset": {
    "message": "Inset",
    "description": "",
    "placeholders": null
  },
  "global.footer.border.style.choices.none": {
    "message": "None",
    "description": "",
    "placeholders": null
  },
  "global.footer.border.style.choices.outset": {
    "message": "Outset",
    "description": "",
    "placeholders": null
  },
  "global.footer.border.style.choices.ridge": {
    "message": "Ridge",
    "description": "",
    "placeholders": null
  },
  "global.footer.border.style.choices.solid": {
    "message": "Solid",
    "description": "",
    "placeholders": null
  },
  "global.footer.border.style.label": {
    "message": "Style",
    "description": "",
    "placeholders": null
  },
  "global.footer.border.width.help_text": {
    "message": "Value is in pixels",
    "description": "",
    "placeholders": null
  },
  "global.footer.border.width.label": {
    "message": "Width",
    "description": "",
    "placeholders": null
  },
  "global.footer.font_color.label": {
    "message": "Font colour",
    "description": "",
    "placeholders": null
  },
  "global.footer.label": {
    "message": "Footer",
    "description": "",
    "placeholders": null
  },
  "global.footer.menu.active.font.label": {
    "message": "Font",
    "description": "",
    "placeholders": null
  },
  "global.footer.menu.active.label": {
    "message": "Active",
    "description": "",
    "placeholders": null
  },
  "global.footer.menu.font.label": {
    "message": "Font",
    "description": "",
    "placeholders": null
  },
  "global.footer.menu.hover.font.label": {
    "message": "Font",
    "description": "",
    "placeholders": null
  },
  "global.footer.menu.hover.label": {
    "message": "Hover",
    "description": "",
    "placeholders": null
  },
  "global.footer.menu.label": {
    "message": "Menu",
    "description": "",
    "placeholders": null
  },
  "global.footer.menu.text_transform.choices.capitalize": {
    "message": "Capitalise",
    "description": "",
    "placeholders": null
  },
  "global.footer.menu.text_transform.choices.lowercase": {
    "message": "Lowercase",
    "description": "",
    "placeholders": null
  },
  "global.footer.menu.text_transform.choices.none": {
    "message": "None",
    "description": "",
    "placeholders": null
  },
  "global.footer.menu.text_transform.choices.uppercase": {
    "message": "Uppercase",
    "description": "",
    "placeholders": null
  },
  "global.footer.menu.text_transform.label": {
    "message": "Text transform",
    "description": "",
    "placeholders": null
  },
  "global.forms.bg_color.label": {
    "message": "Background colour",
    "description": "",
    "placeholders": null
  },
  "global.forms.border.color.label": {
    "message": "Colour",
    "description": "",
    "placeholders": null
  },
  "global.forms.border.corner_radius.help_text": {
    "message": "Value is in pixels",
    "description": "",
    "placeholders": null
  },
  "global.forms.border.corner_radius.label": {
    "message": "Corner radius",
    "description": "",
    "placeholders": null
  },
  "global.forms.border.label": {
    "message": "Border",
    "description": "",
    "placeholders": null
  },
  "global.forms.border.style.choices.dashed": {
    "message": "Dashed",
    "description": "",
    "placeholders": null
  },
  "global.forms.border.style.choices.dotted": {
    "message": "Dotted",
    "description": "",
    "placeholders": null
  },
  "global.forms.border.style.choices.double": {
    "message": "Double",
    "description": "",
    "placeholders": null
  },
  "global.forms.border.style.choices.groove": {
    "message": "Groove",
    "description": "",
    "placeholders": null
  },
  "global.forms.border.style.choices.inset": {
    "message": "Inset",
    "description": "",
    "placeholders": null
  },
  "global.forms.border.style.choices.none": {
    "message": "None",
    "description": "",
    "placeholders": null
  },
  "global.forms.border.style.choices.outset": {
    "message": "Outset",
    "description": "",
    "placeholders": null
  },
  "global.forms.border.style.choices.ridge": {
    "message": "Ridge",
    "description": "",
    "placeholders": null
  },
  "global.forms.border.style.choices.solid": {
    "message": "Solid",
    "description": "",
    "placeholders": null
  },
  "global.forms.border.style.label": {
    "message": "Style",
    "description": "",
    "placeholders": null
  },
  "global.forms.border.width.help_text": {
    "message": "Value is in pixels",
    "description": "",
    "placeholders": null
  },
  "global.forms.border.width.label": {
    "message": "Width",
    "description": "",
    "placeholders": null
  },
  "global.forms.fields.bg_color.label": {
    "message": "Background colour",
    "description": "",
    "placeholders": null
  },
  "global.forms.fields.border.color.label": {
    "message": "Colour",
    "description": "",
    "placeholders": null
  },
  "global.forms.fields.border.corner_radius.help_text": {
    "message": "Value is in pixels",
    "description": "",
    "placeholders": null
  },
  "global.forms.fields.border.corner_radius.label": {
    "message": "Corner radius",
    "description": "",
    "placeholders": null
  },
  "global.forms.fields.border.label": {
    "message": "Border",
    "description": "",
    "placeholders": null
  },
  "global.forms.fields.border.help_text": {
    "message": "Applies to all text fields and dropdown select fields. Does not apply to tickbox, radio, GDPR text and rich text fields.",
    "description": "",
    "placeholders": null
  },
  "global.forms.fields.border.style.choices.dashed": {
    "message": "Dashed",
    "description": "",
    "placeholders": null
  },
  "global.forms.fields.border.style.choices.dotted": {
    "message": "Dotted",
    "description": "",
    "placeholders": null
  },
  "global.forms.fields.border.style.choices.double": {
    "message": "Double",
    "description": "",
    "placeholders": null
  },
  "global.forms.fields.border.style.choices.groove": {
    "message": "Groove",
    "description": "",
    "placeholders": null
  },
  "global.forms.fields.border.style.choices.inset": {
    "message": "Inset",
    "description": "",
    "placeholders": null
  },
  "global.forms.fields.border.style.choices.none": {
    "message": "None",
    "description": "",
    "placeholders": null
  },
  "global.forms.fields.border.style.choices.outset": {
    "message": "Outset",
    "description": "",
    "placeholders": null
  },
  "global.forms.fields.border.style.choices.ridge": {
    "message": "Ridge",
    "description": "",
    "placeholders": null
  },
  "global.forms.fields.border.style.choices.solid": {
    "message": "Solid",
    "description": "",
    "placeholders": null
  },
  "global.forms.fields.border.style.label": {
    "message": "Style",
    "description": "",
    "placeholders": null
  },
  "global.forms.fields.border.width.help_text": {
    "message": "Value is in pixels",
    "description": "",
    "placeholders": null
  },
  "global.forms.fields.border.width.label": {
    "message": "Width",
    "description": "",
    "placeholders": null
  },
  "global.forms.fields.font.label": {
    "message": "Font",
    "description": "",
    "placeholders": null
  },
  "global.forms.fields.checkbox_radio.label": {
    "message": "Tickbox/radio",
    "description": "",
    "placeholders": null
  },
  "global.forms.fields.checkbox_radio.help_text": {
    "message": "Controls form tickbox/radio fields and GDPR tickbox fields",
    "description": "",
    "placeholders": null
  },
  "global.forms.fields.checkbox_radio.font.label": {
    "message": "Font",
    "description": "",
    "placeholders": null
  },
  "global.forms.fields.checkbox_radio.font.help_text": {
    "message": "Controls form tickbox/radio field and GDPR tickbox field item fonts",
    "description": "",
    "placeholders": null
  },
  "global.forms.fields.gdpr_text.label": {
    "message": "GDPR text",
    "description": "",
    "placeholders": null
  },
  "global.forms.fields.gdpr_text.help_text": {
    "message": "Controls the paragraph content of GDPR fields",
    "description": "",
    "placeholders": null
  },
  "global.forms.fields.gdpr_text.font.label": {
    "message": "Font",
    "description": "",
    "placeholders": null
  },
  "global.forms.fields.rich_text.label": {
    "message": "Rich text",
    "description": "",
    "placeholders": null
  },
  "global.forms.fields.rich_text.help_text": {
    "message": "Controls form rich text fields",
    "description": "",
    "placeholders": null
  },
  "global.forms.fields.rich_text.font.label": {
    "message": "Font",
    "description": "",
    "placeholders": null
  },
  "global.forms.fields.label": {
    "message": "Fields",
    "description": "",
    "placeholders": null
  },
  "global.forms.fields.padding.horizontal.help_text": {
    "message": "Value is in pixels",
    "description": "",
    "placeholders": null
  },
  "global.forms.fields.padding.horizontal.label": {
    "message": "Left/Right",
    "description": "",
    "placeholders": null
  },
  "global.forms.fields.padding.label": {
    "message": "Padding",
    "description": "",
    "placeholders": null
  },
  "global.forms.fields.padding.help_text": {
    "message": "Applies to all text fields and dropdown select fields. Does not apply to tickbox, radio, GDPR text and rich text fields.",
    "description": "",
    "placeholders": null
  },
  "global.forms.fields.padding.vertical.help_text": {
    "message": "Value is in pixels",
    "description": "",
    "placeholders": null
  },
  "global.forms.fields.padding.vertical.label": {
    "message": "Top/Bottom",
    "description": "",
    "placeholders": null
  },
  "global.forms.fields.placeholder_color.label": {
    "message": "Placeholder colour",
    "description": "",
    "placeholders": null
  },
  "global.forms.help_text.label": {
    "message": "Help text",
    "description": "",
    "placeholders": null
  },
  "global.forms.label": {
    "message": "Forms",
    "description": "",
    "placeholders": null
  },
  "global.forms.labels.font.label": {
    "message": "Font",
    "description": "",
    "placeholders": null
  },
  "global.forms.labels.label": {
    "message": "Labels",
    "description": "",
    "placeholders": null
  },
  "global.forms.labels.padding.horizontal.help_text": {
    "message": "Value is in pixels",
    "description": "",
    "placeholders": null
  },
  "global.forms.labels.padding.horizontal.label": {
    "message": "Left/Right",
    "description": "",
    "placeholders": null
  },
  "global.forms.labels.padding.label": {
    "message": "Padding",
    "description": "",
    "placeholders": null
  },
  "global.forms.labels.padding.vertical.help_text": {
    "message": "Value is in pixels",
    "description": "",
    "placeholders": null
  },
  "global.forms.labels.padding.vertical.label": {
    "message": "Top/Bottom",
    "description": "",
    "placeholders": null
  },
  "global.forms.padding.horizontal.help_text": {
    "message": "Value is in pixels",
    "description": "",
    "placeholders": null
  },
  "global.forms.padding.horizontal.label": {
    "message": "Left/Right",
    "description": "",
    "placeholders": null
  },
  "global.forms.padding.label": {
    "message": "Padding",
    "description": "",
    "placeholders": null
  },
  "global.forms.padding.vertical.help_text": {
    "message": "Value is in pixels",
    "description": "",
    "placeholders": null
  },
  "global.forms.padding.vertical.label": {
    "message": "Top/Bottom",
    "description": "",
    "placeholders": null
  },
  "global.forms.submit.button_size.choices.large": {
    "message": "Large",
    "description": "",
    "placeholders": null
  },
  "global.forms.submit.button_size.choices.regular": {
    "message": "Regular",
    "description": "",
    "placeholders": null
  },
  "global.forms.submit.button_size.choices.small": {
    "message": "Small",
    "description": "",
    "placeholders": null
  },
  "global.forms.submit.button_size.label": {
    "message": "Button size",
    "description": "",
    "placeholders": null
  },
  "global.forms.submit.button_style.choices.primary": {
    "message": "Primary",
    "description": "",
    "placeholders": null
  },
  "global.forms.submit.button_style.choices.secondary": {
    "message": "Secondary",
    "description": "",
    "placeholders": null
  },
  "global.forms.submit.button_style.choices.simple": {
    "message": "Simple",
    "description": "",
    "placeholders": null
  },
  "global.forms.submit.button_style.label": {
    "message": "Button style",
    "description": "",
    "placeholders": null
  },
  "global.forms.submit.label": {
    "message": "Submit",
    "description": "",
    "placeholders": null
  },
  "global.forms.title.bg_color.label": {
    "message": "Background colour",
    "description": "",
    "placeholders": null
  },
  "global.forms.title.border.color.label": {
    "message": "Colour",
    "description": "",
    "placeholders": null
  },
  "global.forms.title.border.corner_radius.help_text": {
    "message": "Value is in pixels",
    "description": "",
    "placeholders": null
  },
  "global.forms.title.border.corner_radius.label": {
    "message": "Corner radius",
    "description": "",
    "placeholders": null
  },
  "global.forms.title.border.label": {
    "message": "Border",
    "description": "",
    "placeholders": null
  },
  "global.forms.title.border.style.choices.dashed": {
    "message": "Dashed",
    "description": "",
    "placeholders": null
  },
  "global.forms.title.border.style.choices.dotted": {
    "message": "Dotted",
    "description": "",
    "placeholders": null
  },
  "global.forms.title.border.style.choices.double": {
    "message": "Double",
    "description": "",
    "placeholders": null
  },
  "global.forms.title.border.style.choices.groove": {
    "message": "Groove",
    "description": "",
    "placeholders": null
  },
  "global.forms.title.border.style.choices.inset": {
    "message": "Inset",
    "description": "",
    "placeholders": null
  },
  "global.forms.title.border.style.choices.none": {
    "message": "None",
    "description": "",
    "placeholders": null
  },
  "global.forms.title.border.style.choices.outset": {
    "message": "Outset",
    "description": "",
    "placeholders": null
  },
  "global.forms.title.border.style.choices.ridge": {
    "message": "Ridge",
    "description": "",
    "placeholders": null
  },
  "global.forms.title.border.style.choices.solid": {
    "message": "Solid",
    "description": "",
    "placeholders": null
  },
  "global.forms.title.border.style.label": {
    "message": "Style",
    "description": "",
    "placeholders": null
  },
  "global.forms.title.border.width.help_text": {
    "message": "Value is in pixels",
    "description": "",
    "placeholders": null
  },
  "global.forms.title.border.width.label": {
    "message": "Width",
    "description": "",
    "placeholders": null
  },
  "global.forms.title.font.label": {
    "message": "Font",
    "description": "",
    "placeholders": null
  },
  "global.forms.title.label": {
    "message": "Title",
    "description": "",
    "placeholders": null
  },
  "global.forms.title.padding.horizontal.help_text": {
    "message": "Value is in pixels",
    "description": "",
    "placeholders": null
  },
  "global.forms.title.padding.horizontal.label": {
    "message": "Left/Right",
    "description": "",
    "placeholders": null
  },
  "global.forms.title.padding.label": {
    "message": "Padding",
    "description": "",
    "placeholders": null
  },
  "global.forms.title.padding.vertical.help_text": {
    "message": "Value is in pixels",
    "description": "",
    "placeholders": null
  },
  "global.forms.title.padding.vertical.label": {
    "message": "Top/Bottom",
    "description": "",
    "placeholders": null
  },
  "global.forms.title.text_transform.choices.capitalize": {
    "message": "Capitalise",
    "description": "",
    "placeholders": null
  },
  "global.forms.title.text_transform.choices.lowercase": {
    "message": "Lowercase",
    "description": "",
    "placeholders": null
  },
  "global.forms.title.text_transform.choices.none": {
    "message": "None",
    "description": "",
    "placeholders": null
  },
  "global.forms.title.text_transform.choices.uppercase": {
    "message": "Uppercase",
    "description": "",
    "placeholders": null
  },
  "global.forms.title.text_transform.label": {
    "message": "Text transform",
    "description": "",
    "placeholders": null
  },
  "global.header.bg_color.label": {
    "message": "Background colour",
    "description": "",
    "placeholders": null
  },
  "global.header.border.color.label": {
    "message": "Colour",
    "description": "",
    "placeholders": null
  },
  "global.header.border.label": {
    "message": "Bottom border",
    "description": "",
    "placeholders": null
  },
  "global.header.border.style.choices.dashed": {
    "message": "Dashed",
    "description": "",
    "placeholders": null
  },
  "global.header.border.style.choices.dotted": {
    "message": "Dotted",
    "description": "",
    "placeholders": null
  },
  "global.header.border.style.choices.double": {
    "message": "Double",
    "description": "",
    "placeholders": null
  },
  "global.header.border.style.choices.groove": {
    "message": "Groove",
    "description": "",
    "placeholders": null
  },
  "global.header.border.style.choices.inset": {
    "message": "Inset",
    "description": "",
    "placeholders": null
  },
  "global.header.border.style.choices.none": {
    "message": "None",
    "description": "",
    "placeholders": null
  },
  "global.header.border.style.choices.outset": {
    "message": "Outset",
    "description": "",
    "placeholders": null
  },
  "global.header.border.style.choices.ridge": {
    "message": "Ridge",
    "description": "",
    "placeholders": null
  },
  "global.header.border.style.choices.solid": {
    "message": "Solid",
    "description": "",
    "placeholders": null
  },
  "global.header.border.style.label": {
    "message": "Style",
    "description": "",
    "placeholders": null
  },
  "global.header.border.width.help_text": {
    "message": "Value is in pixels",
    "description": "",
    "placeholders": null
  },
  "global.header.border.width.label": {
    "message": "Width",
    "description": "",
    "placeholders": null
  },
  "global.header.font_color.label": {
    "message": "Font colour",
    "description": "",
    "placeholders": null
  },
  "global.header.label": {
    "message": "Website header",
    "description": "",
    "placeholders": null
  },
  "global.header.menu.active.bg_color.label": {
    "message": "Background colour",
    "description": "",
    "placeholders": null
  },
  "global.header.menu.active.font.label": {
    "message": "Font",
    "description": "",
    "placeholders": null
  },
  "global.header.menu.active.label": {
    "message": "Active",
    "description": "",
    "placeholders": null
  },
  "global.header.menu.font.label": {
    "message": "Font",
    "description": "",
    "placeholders": null
  },
  "global.header.menu.hover.bg_color.label": {
    "message": "Background colour",
    "description": "",
    "placeholders": null
  },
  "global.header.menu.hover.font.label": {
    "message": "Font",
    "description": "",
    "placeholders": null
  },
  "global.header.menu.hover.label": {
    "message": "Hover",
    "description": "",
    "placeholders": null
  },
  "global.header.menu.label": {
    "message": "Menu",
    "description": "",
    "placeholders": null
  },
  "global.header.menu.text_transform.choices.capitalize": {
    "message": "Capitalise",
    "description": "",
    "placeholders": null
  },
  "global.header.menu.text_transform.choices.lowercase": {
    "message": "Lowercase",
    "description": "",
    "placeholders": null
  },
  "global.header.menu.text_transform.choices.none": {
    "message": "None",
    "description": "",
    "placeholders": null
  },
  "global.header.menu.text_transform.choices.uppercase": {
    "message": "Uppercase",
    "description": "",
    "placeholders": null
  },
  "global.header.menu.text_transform.label": {
    "message": "Text transform",
    "description": "",
    "placeholders": null
  },
  "global.label": {
    "message": "More settings",
    "description": "",
    "placeholders": null
  },
  "global.tables.bg_color.label": {
    "message": "Background colour",
    "description": "",
    "placeholders": null
  },
  "global.tables.border.color.label": {
    "message": "Colour",
    "description": "",
    "placeholders": null
  },
  "global.tables.border.label": {
    "message": "Border",
    "description": "",
    "placeholders": null
  },
  "global.tables.border.style.choices.dashed": {
    "message": "Dashed",
    "description": "",
    "placeholders": null
  },
  "global.tables.border.style.choices.dotted": {
    "message": "Dotted",
    "description": "",
    "placeholders": null
  },
  "global.tables.border.style.choices.double": {
    "message": "Double",
    "description": "",
    "placeholders": null
  },
  "global.tables.border.style.choices.groove": {
    "message": "Groove",
    "description": "",
    "placeholders": null
  },
  "global.tables.border.style.choices.inset": {
    "message": "Inset",
    "description": "",
    "placeholders": null
  },
  "global.tables.border.style.choices.none": {
    "message": "None",
    "description": "",
    "placeholders": null
  },
  "global.tables.border.style.choices.outset": {
    "message": "Outset",
    "description": "",
    "placeholders": null
  },
  "global.tables.border.style.choices.ridge": {
    "message": "Ridge",
    "description": "",
    "placeholders": null
  },
  "global.tables.border.style.choices.solid": {
    "message": "Solid",
    "description": "",
    "placeholders": null
  },
  "global.tables.border.style.label": {
    "message": "Style",
    "description": "",
    "placeholders": null
  },
  "global.tables.border.width.help_text": {
    "message": "Value is in pixels",
    "description": "",
    "placeholders": null
  },
  "global.tables.border.width.label": {
    "message": "Width",
    "description": "",
    "placeholders": null
  },
  "global.tables.font_color.label": {
    "message": "Font colour",
    "description": "",
    "placeholders": null
  },
  "global.tables.head.bg_color.label": {
    "message": "Background colour",
    "description": "",
    "placeholders": null
  },
  "global.tables.head.border.color.label": {
    "message": "Colour",
    "description": "",
    "placeholders": null
  },
  "global.tables.head.border.label": {
    "message": "Bottom border",
    "description": "",
    "placeholders": null
  },
  "global.tables.head.border.style.choices.dashed": {
    "message": "Dashed",
    "description": "",
    "placeholders": null
  },
  "global.tables.head.border.style.choices.dotted": {
    "message": "Dotted",
    "description": "",
    "placeholders": null
  },
  "global.tables.head.border.style.choices.double": {
    "message": "Double",
    "description": "",
    "placeholders": null
  },
  "global.tables.head.border.style.choices.groove": {
    "message": "Groove",
    "description": "",
    "placeholders": null
  },
  "global.tables.head.border.style.choices.inset": {
    "message": "Inset",
    "description": "",
    "placeholders": null
  },
  "global.tables.head.border.style.choices.none": {
    "message": "None",
    "description": "",
    "placeholders": null
  },
  "global.tables.head.border.style.choices.outset": {
    "message": "Outset",
    "description": "",
    "placeholders": null
  },
  "global.tables.head.border.style.choices.ridge": {
    "message": "Ridge",
    "description": "",
    "placeholders": null
  },
  "global.tables.head.border.style.choices.solid": {
    "message": "Solid",
    "description": "",
    "placeholders": null
  },
  "global.tables.head.border.style.label": {
    "message": "Style",
    "description": "",
    "placeholders": null
  },
  "global.tables.head.border.width.help_text": {
    "message": "Value is in pixels",
    "description": "",
    "placeholders": null
  },
  "global.tables.head.border.width.label": {
    "message": "Width",
    "description": "",
    "placeholders": null
  },
  "global.tables.head.font_color.label": {
    "message": "Font color",
    "description": "",
    "placeholders": null
  },
  "global.tables.head.label": {
    "message": "Table head",
    "description": "",
    "placeholders": null
  },
  "global.tables.label": {
    "message": "Tables",
    "description": "",
    "placeholders": null
  },
  "global.tables.padding.horizontal.help_text": {
    "message": "Value is in pixels",
    "description": "",
    "placeholders": null
  },
  "global.tables.padding.horizontal.label": {
    "message": "Left/Right",
    "description": "",
    "placeholders": null
  },
  "global.tables.padding.label": {
    "message": "Padding",
    "description": "",
    "placeholders": null
  },
  "global.tables.padding.vertical.help_text": {
    "message": "Value is in pixels",
    "description": "",
    "placeholders": null
  },
  "global.tables.padding.vertical.label": {
    "message": "Top/Bottom",
    "description": "",
    "placeholders": null
  },
  "global.typography.body_font.label": {
    "message": "Body",
    "description": "",
    "placeholders": null
  },
  "global.typography.h1.font.label": {
    "message": "Font",
    "description": "",
    "placeholders": null
  },
  "global.typography.h1.label": {
    "message": "Heading one (H1)",
    "description": "",
    "placeholders": null
  },
  "global.typography.h1.letter_spacing.help_text": {
    "message": "Value is in pixels",
    "description": "",
    "placeholders": null
  },
  "global.typography.h1.letter_spacing.label": {
    "message": "Letter spacing",
    "description": "",
    "placeholders": null
  },
  "global.typography.h1.text_transform.choices.capitalize": {
    "message": "Capitalise",
    "description": "",
    "placeholders": null
  },
  "global.typography.h1.text_transform.choices.lowercase": {
    "message": "Lowercase",
    "description": "",
    "placeholders": null
  },
  "global.typography.h1.text_transform.choices.none": {
    "message": "None",
    "description": "",
    "placeholders": null
  },
  "global.typography.h1.text_transform.choices.uppercase": {
    "message": "Uppercase",
    "description": "",
    "placeholders": null
  },
  "global.typography.h1.text_transform.label": {
    "message": "Text transform",
    "description": "",
    "placeholders": null
  },
  "global.typography.h2.font.label": {
    "message": "Font",
    "description": "",
    "placeholders": null
  },
  "global.typography.h2.label": {
    "message": "Heading two (H2)",
    "description": "",
    "placeholders": null
  },
  "global.typography.h2.letter_spacing.help_text": {
    "message": "Value is in pixels",
    "description": "",
    "placeholders": null
  },
  "global.typography.h2.letter_spacing.label": {
    "message": "Letter spacing",
    "description": "",
    "placeholders": null
  },
  "global.typography.h2.text_transform.choices.capitalize": {
    "message": "Capitalise",
    "description": "",
    "placeholders": null
  },
  "global.typography.h2.text_transform.choices.lowercase": {
    "message": "Lowercase",
    "description": "",
    "placeholders": null
  },
  "global.typography.h2.text_transform.choices.none": {
    "message": "None",
    "description": "",
    "placeholders": null
  },
  "global.typography.h2.text_transform.choices.uppercase": {
    "message": "Uppercase",
    "description": "",
    "placeholders": null
  },
  "global.typography.h2.text_transform.label": {
    "message": "Text transform",
    "description": "",
    "placeholders": null
  },
  "global.typography.h3.font.label": {
    "message": "Font",
    "description": "",
    "placeholders": null
  },
  "global.typography.h3.label": {
    "message": "Heading three (H3)",
    "description": "",
    "placeholders": null
  },
  "global.typography.h3.letter_spacing.help_text": {
    "message": "Value is in pixels",
    "description": "",
    "placeholders": null
  },
  "global.typography.h3.letter_spacing.label": {
    "message": "Letter spacing",
    "description": "",
    "placeholders": null
  },
  "global.typography.h3.text_transform.choices.capitalize": {
    "message": "Capitalise",
    "description": "",
    "placeholders": null
  },
  "global.typography.h3.text_transform.choices.lowercase": {
    "message": "Lowercase",
    "description": "",
    "placeholders": null
  },
  "global.typography.h3.text_transform.choices.none": {
    "message": "None",
    "description": "",
    "placeholders": null
  },
  "global.typography.h3.text_transform.choices.uppercase": {
    "message": "Uppercase",
    "description": "",
    "placeholders": null
  },
  "global.typography.h3.text_transform.label": {
    "message": "Text transform",
    "description": "",
    "placeholders": null
  },
  "global.typography.h4.font.label": {
    "message": "Font",
    "description": "",
    "placeholders": null
  },
  "global.typography.h4.label": {
    "message": "Heading four (H4)",
    "description": "",
    "placeholders": null
  },
  "global.typography.h4.letter_spacing.help_text": {
    "message": "Value is in pixels",
    "description": "",
    "placeholders": null
  },
  "global.typography.h4.letter_spacing.label": {
    "message": "Letter spacing",
    "description": "",
    "placeholders": null
  },
  "global.typography.h4.text_transform.choices.capitalize": {
    "message": "Capitalise",
    "description": "",
    "placeholders": null
  },
  "global.typography.h4.text_transform.choices.lowercase": {
    "message": "Lowercase",
    "description": "",
    "placeholders": null
  },
  "global.typography.h4.text_transform.choices.none": {
    "message": "None",
    "description": "",
    "placeholders": null
  },
  "global.typography.h4.text_transform.choices.uppercase": {
    "message": "Uppercase",
    "description": "",
    "placeholders": null
  },
  "global.typography.h4.text_transform.label": {
    "message": "Text transform",
    "description": "",
    "placeholders": null
  },
  "global.typography.h5.font.label": {
    "message": "Font",
    "description": "",
    "placeholders": null
  },
  "global.typography.h5.label": {
    "message": "Heading five (H5)",
    "description": "",
    "placeholders": null
  },
  "global.typography.h5.letter_spacing.help_text": {
    "message": "Value is in pixels",
    "description": "",
    "placeholders": null
  },
  "global.typography.h5.letter_spacing.label": {
    "message": "Letter spacing",
    "description": "",
    "placeholders": null
  },
  "global.typography.h5.text_transform.choices.capitalize": {
    "message": "Capitalise",
    "description": "",
    "placeholders": null
  },
  "global.typography.h5.text_transform.choices.lowercase": {
    "message": "Lowercase",
    "description": "",
    "placeholders": null
  },
  "global.typography.h5.text_transform.choices.none": {
    "message": "None",
    "description": "",
    "placeholders": null
  },
  "global.typography.h5.text_transform.choices.uppercase": {
    "message": "Uppercase",
    "description": "",
    "placeholders": null
  },
  "global.typography.h5.text_transform.label": {
    "message": "Text transform",
    "description": "",
    "placeholders": null
  },
  "global.typography.h6.font.label": {
    "message": "Font",
    "description": "",
    "placeholders": null
  },
  "global.typography.h6.label": {
    "message": "Heading six (H6)",
    "description": "",
    "placeholders": null
  },
  "global.typography.h6.letter_spacing.help_text": {
    "message": "Value is in pixels",
    "description": "",
    "placeholders": null
  },
  "global.typography.h6.letter_spacing.label": {
    "message": "Letter spacing",
    "description": "",
    "placeholders": null
  },
  "global.typography.h6.text_transform.choices.capitalize": {
    "message": "Capitalise",
    "description": "",
    "placeholders": null
  },
  "global.typography.h6.text_transform.choices.lowercase": {
    "message": "Lowercase",
    "description": "",
    "placeholders": null
  },
  "global.typography.h6.text_transform.choices.none": {
    "message": "None",
    "description": "",
    "placeholders": null
  },
  "global.typography.h6.text_transform.choices.uppercase": {
    "message": "Uppercase",
    "description": "",
    "placeholders": null
  },
  "global.typography.h6.text_transform.label": {
    "message": "Text transform",
    "description": "",
    "placeholders": null
  },
  "global.typography.headings.font.label": {
    "message": "Font",
    "description": "",
    "placeholders": null
  },
  "global.typography.headings.heading_toggle.label": {
    "message": "Show controls for each heading level",
    "description": "",
    "placeholders": null
  },
  "global.typography.headings.label": {
    "message": "Headings",
    "description": "",
    "placeholders": null
  },
  "global.typography.headings.text_transform.choices.capitalize": {
    "message": "Capitalise",
    "description": "",
    "placeholders": null
  },
  "global.typography.headings.text_transform.choices.lowercase": {
    "message": "Lowercase",
    "description": "",
    "placeholders": null
  },
  "global.typography.headings.text_transform.choices.none": {
    "message": "None",
    "description": "",
    "placeholders": null
  },
  "global.typography.headings.text_transform.choices.uppercase": {
    "message": "Uppercase",
    "description": "",
    "placeholders": null
  },
  "global.typography.headings.text_transform.label": {
    "message": "Text transform",
    "description": "",
    "placeholders": null
  },
  "global.typography.label": {
    "message": "Typography",
    "description": "",
    "placeholders": null
  },
  "global.typography.links.hover.label": {
    "message": "Hover",
    "description": "",
    "placeholders": null
  },
  "global.typography.links.label": {
    "message": "Links",
    "description": "",
    "placeholders": null
  },
  "spacing.content_width.help_text": {
    "message": "Value is in pixels",
    "description": "",
    "placeholders": null
  },
  "spacing.content_width.label": {
    "message": "Maximum content width",
    "description": "",
    "placeholders": null
  },
  "spacing.label": {
    "message": "Spacing",
    "description": "",
    "placeholders": null
  },
  "spacing.vertical_spacing.help_text": {
    "message": "Value is in pixels",
    "description": "",
    "placeholders": null
  },
  "spacing.vertical_spacing.label": {
    "message": "Vertical spacing",
    "description": "",
    "placeholders": null
  }
}
