{
  "name": {
    "message": "Resultados da pesquisa no site",
    "description": "",
    "placeholders": null
  },
  "display_featured_images.label": {
    "message": "Exibir imagens em destaque",
    "description": "",
    "placeholders": null
  }
}
